<?xml version="1.0" encoding="UTF-8"?>
<kml xmlns="http://www.opengis.net/kml/2.2" xmlns:xsi="http://www.w3.org/2001/XMLSchema-instance" xsi:schemaLocation="http://www.opengis.net/kml/2.2 http://schemas.opengis.net/kml/2.2.0/ogckml22.xsd">
  <Document>
    <name>Day 05-may-17 08.09.39</name>
    <description><![CDATA[Generated by GPSies.com http://www.gpsies.com/]]></description>
    <Style id="gpsiesStyle">
      <IconStyle>
        <scale>0.5</scale>
        <Icon>
          <href>http://www.gpsies.com/images/milestone.png</href>
        </Icon>
      </IconStyle>
      <LineStyle>
        <colorMode>random</colorMode>
        <width>5</width>
      </LineStyle>
    </Style>
    <Style id="flag_n">
      <IconStyle>
        <scale>0.8</scale>
        <Icon>
          <href>http://www.gpsies.com/images/flag.png</href>
        </Icon>
      </IconStyle>
      <LabelStyle>
        <scale>0</scale>
      </LabelStyle>
      <BalloonStyle>
        <text>$[description]</text>
      </BalloonStyle>
    </Style>
    <Style id="flag_h">
      <IconStyle>
        <scale>0.8</scale>
        <Icon>
          <href>http://www.gpsies.com/images/flag.png</href>
        </Icon>
      </IconStyle>
      <LabelStyle>
        <scale>1</scale>
      </LabelStyle>
      <BalloonStyle>
        <text>$[description]</text>
      </BalloonStyle>
    </Style>
    <StyleMap id="flag">
      <Pair>
        <key>normal</key>
        <styleUrl>#flag_n</styleUrl>
      </Pair>
      <Pair>
        <key>highlight</key>
        <styleUrl>#flag_h</styleUrl>
      </Pair>
    </StyleMap>
    <Placemark>
      <name>Day 05-may-17 08.09.39</name>
      <visibility>1</visibility>
      <open>1</open>
      <Snippet maxLines="0" />
      <description><![CDATA[Generated by GPSies.com http://www.gpsies.com/]]></description>
      <styleUrl>#gpsiesStyle</styleUrl>
      <MultiGeometry>
        <LineString>
          <extrude>true</extrude>
          <tessellate>true</tessellate>
          <coordinates>35.18731517,37.82148884,3033.1000
35.18734744,37.82148431,3033.1000
35.18731190,37.82155338,3033.1000
35.18730293,37.82157492,3034.5400
35.18730947,37.82157082,3037.9000
35.18731383,37.82156570,3042.2300
35.18731760,37.82155590,3046.5600
35.18731383,37.82154500,3049.9200
35.18731148,37.82154701,3053.7700
35.18731090,37.82155405,3057.6100
35.18731249,37.82153779,3060.9800
35.18732481,37.82152664,3064.3400
35.18731894,37.82151558,3067.2200
35.18731769,37.82152765,3068.1900
35.18730654,37.82153209,3071.0700
35.18730285,37.82152782,3073.9500
35.18730880,37.82153603,3076.8400
35.18734535,37.82152622,3078.7600
35.18734149,37.82153419,3079.7200
35.18734090,37.82154575,3079.7200
35.18733462,37.82155028,3079.7200
35.18732942,37.82155372,3079.7200
35.18733210,37.82157249,3079.7200
35.18730855,37.82156830,3079.7200
35.18731174,37.82156461,3079.7200
35.18731241,37.82155992,3079.7200
35.18730905,37.82156168,3079.7200
35.18730511,37.82156352,3080.2000
35.18730981,37.82156369,3079.7200
35.18730637,37.82156595,3079.7200
35.18730537,37.82157082,3079.7200
35.18731031,37.82156763,3080.6800
35.18730620,37.82157769,3080.2000
35.18729573,37.82158565,3080.6800
35.18729531,37.82159864,3080.2000
35.18729816,37.82158724,3080.2000
35.18730101,37.82158909,3080.2000
35.18730419,37.82159722,3080.2000
35.18731090,37.82159714,3080.2000
35.18730763,37.82159571,3080.2000
35.18729723,37.82160300,3079.7200
35.18729606,37.82160644,3080.2000
35.18728659,37.82160820,3079.7200
35.18728131,37.82160367,3079.7200
35.18724912,37.82162991,3079.7200
35.18723814,37.82163888,3079.7200
35.18719942,37.82165262,3080.2000
35.18724435,37.82162295,3079.7200
35.18725155,37.82162429,3079.7200
35.18727092,37.82161105,3079.7200
35.18728391,37.82160434,3079.7200
35.18728282,37.82160116,3079.7200
35.18729380,37.82160988,3079.7200
35.18729053,37.82160996,3079.7200
35.18728835,37.82161055,3080.2000
35.18729606,37.82161038,3079.7200
35.18729916,37.82161583,3079.7200
35.18729849,37.82162739,3079.7200
35.18730159,37.82161826,3079.7200
35.18729673,37.82162924,3080.2000
35.18729824,37.82162781,3079.7200
35.18729682,37.82162915,3079.7200
35.18731098,37.82160049,3079.7200
35.18730302,37.82160049,3079.7200
35.18729455,37.82160786,3079.7200
35.18729933,37.82160258,3079.2400
35.18730746,37.82160568,3079.7200
35.18730629,37.82161507,3079.7200
35.18729547,37.82163402,3079.7200
35.18729229,37.82163259,3079.2400
35.18728391,37.82162094,3079.7200
35.18728181,37.82161574,3079.7200
35.18728139,37.82161155,3079.2400
35.18729112,37.82160921,3079.7200
35.18730335,37.82161214,3079.7200
35.18728475,37.82161633,3079.7200
35.18727620,37.82161390,3079.2400
35.18727536,37.82161356,3079.2400
35.18729128,37.82161138,3079.7200
35.18728936,37.82161197,3079.2400
35.18730394,37.82162010,3078.7600
35.18730067,37.82161080,3078.7600
35.18730067,37.82161256,3077.8000
35.18731148,37.82160879,3081.1600
35.18731098,37.82160359,3079.2400
35.18729363,37.82159253,3079.2400
35.18729531,37.82159722,3079.2400
35.18730570,37.82159202,3079.2400
35.18730578,37.82159118,3079.2400
35.18730210,37.82158892,3079.2400
35.18730059,37.82157920,3079.2400
35.18729539,37.82157928,3079.2400
35.18730604,37.82157065,3079.7200
35.18730361,37.82157962,3079.2400
35.18729782,37.82157626,3079.2400
35.18729799,37.82157618,3079.2400
35.18729397,37.82157325,3079.2400
35.18729204,37.82156989,3079.2400
35.18729648,37.82156939,3079.2400
35.18728869,37.82156872,3079.2400
35.18728818,37.82157551,3079.2400
35.18728944,37.82157258,3079.2400
35.18729472,37.82157258,3079.7200
35.18728751,37.82157777,3079.7200
35.18728827,37.82157685,3079.7200
35.18732540,37.82163100,3079.2400
35.18737812,37.82167450,3079.2400
35.18743101,37.82172672,3079.7200
35.18751047,37.82175597,3079.7200
35.18758700,37.82181984,3080.2000
35.18763385,37.82186049,3080.2000
35.18769764,37.82191288,3079.7200
35.18771926,37.82192587,3079.7200
35.18779252,37.82194758,3079.2400
35.18785589,37.82198111,3077.8000
35.18786301,37.82198748,3077.8000
35.18790685,37.82200240,3076.8400
35.18798028,37.82203920,3074.9100
35.18801498,37.82207574,3073.4700
35.18802244,37.82207608,3073.4700
35.18805949,37.82212570,3072.5100
35.18806577,37.82213794,3072.0300
35.18808438,37.82220390,3071.0700
35.18813358,37.82227330,3070.1100
35.18819225,37.82234195,3069.1500
35.18820449,37.82234815,3068.6700
35.18824565,37.82237783,3068.1900
35.18828320,37.82245486,3068.1900
35.18837724,37.82249291,3068.6700
35.18842116,37.82255720,3069.6300
35.18842552,37.82256508,3069.6300
35.18845746,37.82262073,3070.1100
35.18848830,37.82264563,3070.1100
35.18850272,37.82268175,3070.1100
35.18854002,37.82275736,3070.1100
35.18861303,37.82281402,3069.6300
35.18866407,37.82284495,3069.1500
35.18872057,37.82287202,3069.1500
35.18874714,37.82289985,3070.1100
35.18878636,37.82292617,3070.5900
35.18881402,37.82297068,3071.0700
35.18881930,37.82297763,3071.0700
35.18886390,37.82302533,3071.5500
35.18892324,37.82309113,3072.5100
35.18895786,37.82312071,3072.9900
35.18899273,37.82316832,3074.4300
35.18899281,37.82317059,3074.4300
35.18898996,37.82317972,3074.9100
35.18901502,37.82322792,3075.4000
35.18905660,37.82325583,3076.8400
35.18907680,37.82328458,3077.3200
35.18910555,37.82334074,3078.7600
35.18912457,37.82337469,3079.7200
35.18913136,37.82338491,3080.2000
35.18913882,37.82338407,3080.2000
35.18913648,37.82339665,3080.2000
35.18915802,37.82343805,3081.6400
35.18917009,37.82347586,3082.6000
35.18919557,37.82349564,3083.5700
35.18924561,37.82352598,3085.4900
35.18927109,37.82354895,3086.4500
35.18927671,37.82355406,3086.4500
35.18928727,37.82356663,3086.4500
35.18928802,37.82356688,3086.9300
35.18930772,37.82358457,3087.8900
35.18936748,37.82361458,3089.3300
35.18942222,37.82364651,3089.8100
35.18944367,37.82366051,3090.7800
35.18945449,37.82367249,3091.2600
35.18949958,37.82369110,3091.7400
35.18956328,37.82372899,3092.7000
35.18960083,37.82373494,3093.6600
35.18960000,37.82376101,3094.1400
35.18962129,37.82376553,3094.6200
35.18963294,37.82378423,3095.1000
35.18966906,37.82380627,3096.0600
35.18967619,37.82382966,3097.0200
35.18962036,37.82385086,3097.9900
35.18961165,37.82385229,3098.9500
35.18960486,37.82385120,3100.3900
35.18957703,37.82387106,3100.3900
35.18956957,37.82386897,3101.3500
35.18955373,37.82387441,3101.8300
35.18953797,37.82388246,3102.7900
35.18952196,37.82389344,3103.7500
35.18948969,37.82390970,3104.7100
35.18944409,37.82393686,3105.6800
35.18942942,37.82393988,3105.6800
35.18940906,37.82395455,3106.1600
35.18937536,37.82396913,3107.1200
35.18936161,37.82396896,3108.5600
35.18934912,37.82397567,3109.5200
35.18933932,37.82399763,3110.4800
35.18934904,37.82404398,3111.4400
35.18935885,37.82408229,3112.8900
35.18935063,37.82407483,3113.3700
35.18935231,37.82407105,3113.3700
35.18935357,37.82407860,3114.3300
35.18935776,37.82410366,3116.2500
35.18931400,37.82411171,3117.2100
35.18931794,37.82413258,3117.6900
35.18927536,37.82415068,3118.6500
35.18924192,37.82416787,3119.6200
35.18922247,37.82416451,3120.5800
35.18920261,37.82416527,3122.0200
35.18916497,37.82417415,3123.9400
35.18913270,37.82420215,3125.3800
35.18913337,37.82420919,3125.3800
35.18912793,37.82421363,3126.3400
35.18912063,37.82422721,3127.3100
35.18911720,37.82424389,3128.7500
35.18911519,37.82429091,3130.6700
35.18911032,37.82431589,3131.6300
35.18911099,37.82434497,3133.5500
35.18913396,37.82439669,3135.0000
35.18913388,37.82439895,3135.0000
35.18914788,37.82444857,3135.9600
35.18914234,37.82446693,3136.9200
35.18913212,37.82449141,3138.3600
35.18909230,37.82451680,3139.3200
35.18908300,37.82451236,3138.8400
35.18908451,37.82451689,3138.8400
35.18908501,37.82452275,3139.8000
35.18908099,37.82452343,3140.2800
35.18907378,37.82453315,3140.2800
35.18907898,37.82455058,3141.2500
35.18907126,37.82456198,3141.7300
35.18906674,37.82459107,3142.6900
35.18906791,37.82461814,3144.6100
35.18907889,37.82463164,3146.0500
35.18910010,37.82467975,3147.0100
35.18910915,37.82469341,3148.4600
35.18910898,37.82469450,3148.4600
35.18912265,37.82471872,3149.4200
35.18913924,37.82475518,3150.8600
35.18915341,37.82478427,3152.7800
35.18918249,37.82480942,3154.2200
35.18921015,37.82485493,3155.6600
35.18923337,37.82489290,3155.6600
35.18926212,37.82493858,3156.6300
35.18926271,37.82495233,3156.6300
35.18925357,37.82496356,3157.1100
35.18924745,37.82496750,3156.6300
35.18924837,37.82495853,3156.6300
35.18924620,37.82496071,3157.1100
35.18925022,37.82496121,3156.1500
35.18924653,37.82496465,3156.1500
35.18924846,37.82496448,3156.1500
35.18925081,37.82496280,3156.1500
35.18925500,37.82496297,3156.6300
35.18925365,37.82496456,3156.6300
35.18925801,37.82496264,3156.6300
35.18926053,37.82496180,3156.6300
35.18926497,37.82499508,3156.1500
35.18926396,37.82500136,3156.1500
35.18926975,37.82502106,3156.1500
35.18929012,37.82507604,3155.6600
35.18928836,37.82508543,3155.6600
35.18928140,37.82512323,3155.1800
35.18929028,37.82515852,3154.2200
35.18930604,37.82519758,3153.2600
35.18932842,37.82525952,3152.3000
35.18931602,37.82526925,3151.8200
35.18928844,37.82526933,3152.7800
35.18928081,37.82528501,3151.3400
35.18930696,37.82527738,3150.8600
35.18932549,37.82529121,3150.8600
35.18934594,37.82534284,3147.9700
35.18935089,37.82540864,3146.5300
35.18935122,37.82541928,3145.5700
35.18935550,37.82548307,3143.1700
35.18936002,37.82552984,3141.7300
35.18937167,37.82560888,3139.3200
35.18937100,37.82567493,3136.9200
35.18937662,37.82573629,3135.0000
35.18940059,37.82578809,3133.0700
35.18940310,37.82582740,3131.1500
35.18941048,37.82587828,3129.2300
35.18943311,37.82591943,3126.8300
35.18944418,37.82594181,3124.9000
35.18946278,37.82598372,3122.5000
35.18946303,37.82600736,3119.6200
35.18946907,37.82602655,3117.6900
35.18949681,37.82609210,3114.8100
35.18951542,37.82615077,3113.3700
35.18953478,37.82622051,3111.9200
35.18955918,37.82628958,3111.4400
35.18956379,37.82635311,3110.9600
35.18958323,37.82643006,3109.5200
35.18962011,37.82650616,3107.6000
35.18964668,37.82657230,3106.6400
35.18967350,37.82665612,3105.2000
35.18967493,37.82666106,3105.2000
35.18969706,37.82673080,3104.2300
35.18969932,37.82679878,3104.2300
35.18970351,37.82684295,3103.7500
35.18970242,37.82691814,3102.7900
35.18970536,37.82699047,3101.8300
35.18971022,37.82704646,3101.3500
35.18970938,37.82705442,3101.3500
35.18970225,37.82707362,3100.8700
35.18970561,37.82709499,3100.3900
35.18969882,37.82714922,3100.3900
35.18969547,37.82720840,3100.3900
35.18969119,37.82728501,3100.3900
35.18968222,37.82734813,3100.3900
35.18967241,37.82740194,3100.8700
35.18967376,37.82745173,3101.8300
35.18967342,37.82749640,3102.7900
35.18967946,37.82752876,3103.7500
35.18969320,37.82758114,3104.7100
35.18969069,37.82761534,3105.6800
35.18971315,37.82767821,3106.1600
35.18972832,37.82773990,3106.6400
35.18976612,37.82780519,3107.1200
35.18981323,37.82784006,3107.1200
35.18982002,37.82788759,3107.1200
35.18980066,37.82794475,3107.1200
35.18978348,37.82797493,3107.1200
35.18977325,37.82804843,3107.1200
35.18976822,37.82810476,3107.1200
35.18975657,37.82815958,3106.6400
35.18975146,37.82819956,3106.1600
35.18973587,37.82825798,3106.1600
35.18971391,37.82829210,3106.6400
35.18969144,37.82830744,3107.1200
35.18964509,37.82833392,3108.0800
35.18961223,37.82835429,3108.5600
35.18957912,37.82839620,3109.5200
35.18954417,37.82844004,3110.0000
35.18951274,37.82846627,3110.9600
35.18950050,37.82847373,3111.4400
35.18945323,37.82851279,3111.9200
35.18940788,37.82855395,3112.4100
35.18937846,37.82858488,3112.8900
35.18936044,37.82859259,3112.8900
35.18935952,37.82859049,3112.8900
35.18934477,37.82861966,3113.3700
35.18931820,37.82866836,3113.8500
35.18930311,37.82871689,3114.3300
35.18929104,37.82877079,3114.8100
35.18929062,37.82884388,3114.3300
35.18928190,37.82888914,3114.3300
35.18928308,37.82895871,3114.3300
35.18929330,37.82901856,3114.8100
35.18931275,37.82906030,3116.2500
35.18932155,37.82909927,3117.6900
35.18933597,37.82912123,3119.1300
35.18932532,37.82912417,3119.6200
35.18932725,37.82912199,3119.6200
35.18932884,37.82912652,3119.6200
35.18932859,37.82913180,3119.6200
35.18932641,37.82913473,3119.6200
35.18932566,37.82913632,3119.6200
35.18934762,37.82914110,3119.6200
35.18934787,37.82913615,3119.6200
35.18935533,37.82916080,3121.0600
35.18936974,37.82918670,3122.5000
35.18938408,37.82922215,3124.4200
35.18941434,37.82925258,3125.8600
35.18943244,37.82929097,3126.8300
35.18943839,37.82932802,3128.2700
35.18943496,37.82933154,3128.2700
35.18942959,37.82933522,3128.2700
35.18944191,37.82936439,3128.7500
35.18946195,37.82943933,3129.7100
35.18945231,37.82949415,3131.1500
35.18944300,37.82949750,3132.1100
35.18940704,37.82953522,3133.5500
35.18937201,37.82956640,3134.5200
35.18934099,37.82960076,3135.9600
35.18931518,37.82963873,3137.4000
35.18932892,37.82963328,3137.4000
35.18929523,37.82969104,3138.8400
35.18927964,37.82973119,3140.7600
35.18927327,37.82974828,3140.7600
35.18924804,37.82979028,3142.2100
35.18922784,37.82980092,3143.1700
35.18920454,37.82984099,3144.6100
35.18920429,37.82985029,3144.1300
35.18920479,37.82985264,3144.6100
35.18920538,37.82987284,3144.1300
35.18921468,37.82987904,3144.1300
35.18921745,37.82990008,3144.1300
35.18923421,37.82992246,3144.1300
35.18923538,37.82992254,3144.1300
35.18922583,37.82992623,3144.1300
35.18922180,37.82992590,3144.1300
35.18922314,37.82992389,3144.1300
35.18924402,37.82990922,3144.1300
35.18925282,37.82989840,3144.1300
35.18923907,37.82987963,3144.6100
35.18924192,37.82988893,3145.0900
35.18922641,37.82988600,3143.6500
35.18922725,37.82988374,3144.6100
35.18922599,37.82988508,3144.6100
35.18922960,37.82989664,3144.6100
35.18920957,37.82993344,3145.5700
35.18917889,37.82998591,3146.0500
35.18917386,37.82998231,3146.5300
35.18916439,37.82997518,3146.5300
35.18915483,37.82996479,3146.5300
35.18915408,37.82997979,3146.0500
35.18914536,37.82999924,3146.5300
35.18911586,37.83003218,3146.0500
35.18906674,37.83008775,3149.9000
35.18906800,37.83009613,3145.5700
35.18905534,37.83013293,3148.9400
35.18904226,37.83015104,3144.6100
35.18903237,37.83017090,3147.0100
35.18902047,37.83018917,3148.9400
35.18896800,37.83022555,3147.4900
35.18892617,37.83027836,3148.9400
35.18892316,37.83031733,3149.4200
35.18888770,37.83033024,3149.9000
35.18885484,37.83034759,3149.9000
35.18881713,37.83035245,3149.9000
35.18877966,37.83036796,3149.9000
35.18876893,37.83036553,3150.3800
35.18877086,37.83036779,3150.3800
35.18876566,37.83037525,3150.3800
35.18874890,37.83036150,3150.3800
35.18874680,37.83035547,3150.3800
35.18875367,37.83035824,3150.3800
35.18874915,37.83035882,3150.3800
35.18874605,37.83036000,3150.3800
35.18874865,37.83035790,3150.3800
35.18875158,37.83035790,3150.3800
35.18875468,37.83035706,3150.3800
35.18876859,37.83032882,3150.3800
35.18877656,37.83030828,3150.3800
35.18877899,37.83029152,3149.9000
35.18879827,37.83026788,3149.9000
35.18880983,37.83025958,3149.9000
35.18884520,37.83023921,3149.4200
35.18888007,37.83022144,3148.9400
35.18888661,37.83021884,3148.4600
35.18892986,37.83016042,3147.9700
35.18896565,37.83010401,3147.0100
35.18899499,37.83007451,3147.0100
35.18902785,37.83005858,3146.5300
35.18905400,37.83004299,3147.0100
35.18909172,37.82998968,3146.5300
35.18912608,37.82995230,3145.5700
35.18920739,37.82985591,3145.0900
35.18920420,37.82985230,3144.6100
35.18924008,37.82983629,3144.1300
35.18925148,37.82984820,3144.1300
35.18925307,37.82985155,3143.6500
35.18924737,37.82985683,3144.1300
35.18924100,37.82986471,3144.1300
35.18923513,37.82987058,3144.1300
35.18923572,37.82987167,3143.6500
35.18923128,37.82987284,3140.7600
35.18923086,37.82987292,3144.1300
35.18922817,37.82987653,3144.1300
35.18922356,37.82987552,3144.1300
35.18921627,37.82987980,3144.1300
35.18921493,37.82987846,3144.1300
35.18920906,37.82987527,3144.1300
35.18920655,37.82987460,3144.1300
35.18920814,37.82987510,3143.6500
35.18920747,37.82987426,3144.1300
35.18920579,37.82987477,3144.6100
35.18920362,37.82987644,3144.1300
35.18920102,37.82987628,3144.1300
35.18920001,37.82987854,3144.1300
35.18920135,37.82988382,3144.1300
35.18919733,37.82988701,3144.1300
35.18919951,37.82988910,3144.1300
35.18920378,37.82989011,3143.6500
35.18920730,37.82988860,3143.6500
35.18920881,37.82988550,3143.6500
35.18920294,37.82988365,3144.1300
35.18919951,37.82988290,3143.6500
35.18919792,37.82988365,3143.6500
35.18919859,37.82988441,3143.6500
35.18919783,37.82988633,3144.6100
35.18919968,37.82988491,3143.6500
35.18920227,37.82988508,3144.1300
35.18920529,37.82988499,3143.6500
35.18920026,37.82988768,3144.1300
35.18919993,37.82988667,3144.1300
35.18920303,37.82988667,3144.1300
35.18919993,37.82988826,3144.1300
35.18919699,37.82989053,3143.6500
35.18919004,37.82989069,3144.1300
35.18918987,37.82988969,3143.6500
35.18919163,37.82988927,3144.1300
35.18919414,37.82988357,3144.1300
35.18919465,37.82988382,3143.6500
35.18919909,37.82988768,3143.6500
35.18920294,37.82988835,3144.1300
35.18920462,37.82989027,3144.1300
35.18920429,37.82989011,3144.1300
35.18920387,37.82988994,3143.6500
35.18919758,37.82989656,3144.1300
35.18918207,37.82991349,3145.0900
35.18920135,37.82997728,3146.0500
35.18919926,37.83002589,3146.5300
35.18921786,37.83008197,3147.0100
35.18920521,37.83010175,3147.9700
35.18913631,37.83011608,3149.4200
35.18912860,37.83011734,3147.4900
35.18907839,37.83016134,3148.4600
35.18905106,37.83021348,3148.4600
35.18903019,37.83025313,3150.3800
35.18903288,37.83028238,3150.3800
35.18904796,37.83030803,3151.8200
35.18904084,37.83033460,3153.2600
35.18905777,37.83038699,3153.7400
35.18905165,37.83041959,3154.7000
35.18904880,37.83044935,3155.1800
35.18902273,37.83046368,3156.6300
35.18902760,37.83049830,3157.5900
35.18902977,37.83052529,3157.5900
35.18899843,37.83054926,3158.5500
35.18899960,37.83057097,3159.9900
35.18901796,37.83061330,3160.9500
35.18902081,37.83063249,3161.9100
35.18901293,37.83064967,3162.3900
35.18901494,37.83064557,3162.3900
35.18900563,37.83065395,3165.7600
35.18899491,37.83065982,3158.0700
35.18899683,37.83066258,3162.3900
35.18900128,37.83066476,3167.2000
35.18900203,37.83066694,3163.3600
35.18899524,37.83067281,3164.3200
35.18894629,37.83071028,3164.3200
35.18894629,37.83071044,3167.6800
35.18894763,37.83071572,3164.3200
35.18895073,37.83071505,3166.2400
35.18894562,37.83072452,3167.2000
35.18894168,37.83073970,3168.6400
35.18893799,37.83074313,3169.1200
35.18895132,37.83077289,3170.5700
35.18896632,37.83081396,3171.0500
35.18895761,37.83086727,3171.5300
35.18895853,37.83087372,3172.9700
35.18897060,37.83088169,3172.4900
35.18896968,37.83088093,3172.9700
35.18894311,37.83091261,3173.4500
35.18895090,37.83091379,3173.4500
35.18894344,37.83095469,3175.3700
35.18894101,37.83094656,3175.8500
35.18895442,37.83094631,3176.3300
35.18892869,37.83096022,3177.7800
35.18891729,37.83096794,3178.2600
35.18891712,37.83096768,3179.7000
35.18892726,37.83100540,3181.6200
35.18891804,37.83100616,3181.1400
35.18890162,37.83104823,3183.0600
35.18891494,37.83107749,3184.0200
35.18893137,37.83110062,3184.9800
35.18895643,37.83110397,3183.5400
35.18895551,37.83110699,3186.4300
35.18895911,37.83111043,3187.8700
35.18896766,37.83112258,3188.3500
35.18897521,37.83113448,3189.3100
35.18896926,37.83115703,3189.7900
35.18896305,37.83115929,3192.6800
35.18896557,37.83116298,3189.3100
35.18896875,37.83117480,3191.7100
35.18896766,37.83117648,3191.2300
35.18896280,37.83118343,3192.6800
35.18896230,37.83119559,3192.6800
35.18897965,37.83124345,3195.0800
35.18896674,37.83126373,3195.5600
35.18896280,37.83127228,3198.4400
35.18896766,37.83127773,3197.9600
35.18897278,37.83129005,3199.4000
35.18897596,37.83129927,3197.9600
35.18897387,37.83130606,3200.8500
35.18898736,37.83130849,3201.3300
35.18903254,37.83132425,3201.8100
35.18907093,37.83134428,3202.7700
35.18908468,37.83135007,3202.7700
35.18909809,37.83136239,3203.7300
35.18912030,37.83137203,3204.6900
35.18912809,37.83137521,3206.1300
35.18913564,37.83137613,3206.6100
35.18917059,37.83137840,3208.0600
35.18918358,37.83136834,3208.0600
35.18918802,37.83136423,3209.0200
35.18923865,37.83139315,3209.0200
35.18925399,37.83139323,3210.9400
35.18925910,37.83139952,3210.9400
35.18927285,37.83139868,3211.4200
35.18927997,37.83139432,3213.8200
35.18928559,37.83138996,3215.2700
35.18928274,37.83138929,3216.7100
35.18929875,37.83142676,3217.6700
35.18930034,37.83145392,3218.1500
35.18930638,37.83149491,3221.5200
35.18932214,37.83153103,3221.0300
35.18933303,37.83154771,3222.0000
35.18933504,37.83154746,3222.9600
35.18933605,37.83154746,3221.5200
35.18934083,37.83154972,3223.4400
35.18935441,37.83156875,3222.4800
35.18935767,37.83157328,3223.9200
35.18937125,37.83160245,3222.9600
35.18937276,37.83160613,3224.8800</coordinates>
        </LineString>
        <LineString>
          <extrude>true</extrude>
          <tessellate>true</tessellate>
          <coordinates>35.18975757,37.83181786,3250.8300
35.18978498,37.83182624,3250.3500
35.18982036,37.83186614,3251.8000
35.18981935,37.83186547,3252.7600
35.18981390,37.83188651,3254.6800
35.18980896,37.83191266,3253.2400
35.18981449,37.83191425,3255.6400
35.18985078,37.83191794,3254.6800
35.18985271,37.83192054,3256.1200
35.18984776,37.83192875,3256.6000
35.18983880,37.83191945,3257.0800
35.18987425,37.83192674,3257.5600
35.18992194,37.83193814,3259.0100
35.18995673,37.83195993,3259.4900
35.19001188,37.83199572,3260.4500
35.19003560,37.83201115,3260.9300</coordinates>
        </LineString>
        <LineString>
          <extrude>true</extrude>
          <tessellate>true</tessellate>
          <coordinates>35.18990686,37.83200327,3269.1000
35.18990510,37.83200545,3267.1800
35.18990417,37.83200662,3269.5800
35.18990325,37.83200771,3268.1400
35.18990233,37.83200880,3269.5800
35.18998347,37.83201023,3269.5800
35.18999034,37.83200486,3270.5400
35.19001213,37.83202372,3271.5000
35.19001565,37.83202825,3270.0600
35.19001825,37.83203319,3271.5000</coordinates>
        </LineString>
        <LineString>
          <extrude>true</extrude>
          <tessellate>true</tessellate>
          <coordinates>35.18995220,37.83205515,3272.9500
35.19001364,37.83204208,3271.9800
35.19002127,37.83202640,3275.3500
35.19002722,37.83202867,3270.5400
35.19003585,37.83203294,3275.3500
35.19007357,37.83204174,3273.4300
35.19005463,37.83202758,3272.4600
35.19002337,37.83201140,3274.3900
35.19000551,37.83198743,3276.7900
35.18995975,37.83196094,3277.7500
35.18995899,37.83200637,3278.7100
35.19001800,37.83204182,3280.1600
35.19003862,37.83205155,3281.1200
35.19006234,37.83205649,3282.0800
35.19006821,37.83205096,3282.5600
35.19012596,37.83204585,3283.0400
35.19011951,37.83205138,3284.4800
35.19012194,37.83204928,3283.0400
35.19013099,37.83205012,3284.4800
35.19012479,37.83204635,3285.4400
35.19013619,37.83203227,3284.9600
35.19014029,37.83202716,3286.8900
35.19015161,37.83201316,3287.3700
35.19015261,37.83201182,3285.9200
35.19015370,37.83201056,3287.8500
35.19015580,37.83200796,3284.4800</coordinates>
        </LineString>
        <LineString>
          <extrude>true</extrude>
          <tessellate>true</tessellate>
          <coordinates>35.19016318,37.83212983,3289.2900
35.19014239,37.83208927,3290.2500
35.19013493,37.83207518,3290.7300
35.19014230,37.83209170,3292.1700
35.19018949,37.83212137,3293.6100
35.19023601,37.83217476,3294.0900
35.19024381,37.83218817,3292.6500
35.19024490,37.83219010,3295.0600
35.19024599,37.83219194,3293.6100
35.19024926,37.83219764,3294.0900
35.19025035,37.83219957,3296.5000
35.19025144,37.83220150,3295.0600
35.19024054,37.83216965,3297.4600
35.19023803,37.83216269,3293.6100
35.19023425,37.83215666,3293.6100
35.19022906,37.83215071,3296.9800
35.19022537,37.83214551,3296.9800
35.19025177,37.83215448,3296.9800
35.19025638,37.83215842,3298.4200
35.19027926,37.83216512,3298.4200
35.19027767,37.83215012,3297.9400
35.19027499,37.83215071,3301.3000
35.19027817,37.83215029,3298.9000
35.19028429,37.83214744,3297.4600
35.19028631,37.83214727,3300.8200
35.19028983,37.83215448,3299.8600
35.19031539,37.83215573,3299.3800
35.19032218,37.83215741,3301.3000
35.19029351,37.83214719,3301.7900
35.19030776,37.83218658,3302.2700
35.19034724,37.83226135,3302.7500
35.19035780,37.83228037,3302.7500
35.19035831,37.83228113,3304.6700
35.19033534,37.83225825,3303.7100
35.19029921,37.83223377,3303.2300
35.19030215,37.83223126,3305.1500
35.19030776,37.83223922,3305.6300
35.19031187,37.83223922,3303.7100
35.19031455,37.83224274,3305.1500
35.19031547,37.83224467,3306.5900
35.19032008,37.83224333,3304.6700
35.19032411,37.83224911,3305.1500
35.19034129,37.83226252,3305.1500
35.19033970,37.83225439,3306.5900
35.19035101,37.83224559,3306.5900
35.19035194,37.83224198,3306.1100
35.19035344,37.83224215,3308.0300
35.19035604,37.83225481,3306.5900
35.19035973,37.83224919,3309.0000
35.19041027,37.83227669,3309.9600
35.19041472,37.83228037,3307.5500
35.19045076,37.83232061,3310.4400
35.19043358,37.83233427,3311.8800
35.19046492,37.83224190,3311.4000
35.19047540,37.83224500,3312.8400
35.19047590,37.83224735,3309.4800
35.19047632,37.83224785,3310.9200
35.19047699,37.83224835,3314.7600
35.19047548,37.83224944,3311.4000
35.19047565,37.83224299,3315.2400
35.19047381,37.83224517,3314.2800
35.19050214,37.83218390,3315.2400
35.19047959,37.83213587,3314.7600
35.19049124,37.83213260,3315.7200
35.19045704,37.83222405,3317.1700
35.19047364,37.83225280,3317.1700
35.19047054,37.83224953,3320.0500
35.19049560,37.83227258,3319.0900
35.19051153,37.83232220,3320.5300
35.19053231,37.83233125,3322.4500
35.19052829,37.83233377,3317.6500
35.19052494,37.83233687,3327.2600
35.19052460,37.83234064,3323.9000
35.19052712,37.83234139,3322.4500
35.19054606,37.83234584,3323.4200
35.19061119,37.83229152,3323.4200
35.19074245,37.83217711,3322.4500
35.19074354,37.83218013,3323.9000
35.19062292,37.83220142,3322.9300
35.19061764,37.83219412,3320.5300
35.19058504,37.83218281,3319.0900
35.19058143,37.83218767,3318.6100
35.19058931,37.83218616,3318.6100
35.19058219,37.83217677,3318.6100
35.19058495,37.83217267,3318.6100
35.19058638,37.83217166,3317.6500
35.19058487,37.83217015,3315.7200
35.19058319,37.83212305,3312.3600
35.19052469,37.83208382,3309.4800
35.19047641,37.83206957,3306.5900
35.19046191,37.83207301,3303.7100
35.19043953,37.83205792,3300.3400
35.19041463,37.83205591,3298.9000
35.19037792,37.83208407,3296.9800
35.19034657,37.83208105,3295.5400
35.19027289,37.83207544,3293.6100
35.19024171,37.83206286,3291.2100
35.19022814,37.83204434,3289.2900
35.19015655,37.83204501,3287.3700
35.19012713,37.83203411,3284.0000
35.19012093,37.83202523,3283.5200
35.19011129,37.83199941,3282.0800
35.19012085,37.83199807,3282.0800
35.19012076,37.83199816,3280.1600
35.19011951,37.83199824,3276.7900
35.19011758,37.83199832,3282.0800
35.18998573,37.83197712,3282.0800
35.18993611,37.83196530,3281.6000
35.18988724,37.83195365,3281.1200</coordinates>
        </LineString>
        <LineString>
          <extrude>true</extrude>
          <tessellate>true</tessellate>
          <coordinates>35.19013510,37.83200101,3281.6000
35.19008983,37.83197527,3282.0800
35.19009042,37.83198567,3281.6000
35.19008145,37.83197787,3282.0800
35.19006779,37.83198080,3282.0800
35.19006469,37.83199438,3284.4800
35.19006695,37.83208675,3286.8900
35.19008866,37.83213646,3287.8500
35.19009696,37.83212447,3286.4000
35.19009595,37.83212422,3287.8500
35.19008656,37.83212162,3288.8100
35.19008564,37.83212137,3287.3700
35.19010685,37.83215926,3287.8500
35.19016276,37.83207342,3288.3300
35.19015538,37.83215540,3287.3700
35.19015111,37.83215481,3287.8500
35.19016192,37.83217334,3289.7700
35.19017793,37.83219454,3292.6500
35.19019771,37.83218256,3293.6100
35.19021607,37.83213319,3294.5800
35.19027851,37.83212657,3296.0200
35.19030114,37.83212120,3296.0200
35.19035286,37.83211257,3297.4600
35.19034322,37.83211818,3297.9400
35.19049988,37.83235087,3297.4600
35.19038429,37.83228314,3300.8200
35.19036166,37.83231751,3302.2700
35.19031791,37.83231248,3302.7500
35.19029553,37.83231918,3302.7500
35.19021891,37.83233167,3302.7500
35.19017466,37.83235732,3303.2300
35.19027968,37.83234173,3305.1500
35.19027994,37.83239579,3306.1100
35.19035671,37.83239202,3308.5100
35.19041924,37.83239060,3310.9200
35.19044548,37.83237551,3312.3600
35.19045696,37.83234156,3312.3600
35.19045939,37.83232807,3314.2800
35.19048328,37.83232882,3315.7200
35.19045042,37.83236939,3316.6900
35.19045386,37.83237819,3316.6900
35.19046400,37.83234206,3317.1700
35.19048630,37.83232782,3320.0500
35.19051622,37.83232765,3321.4900
35.19054472,37.83235799,3323.9000
35.19048613,37.83238397,3323.4200
35.19047381,37.83238406,3323.4200
35.19048831,37.83239395,3324.8600
35.19049669,37.83239814,3323.9000
35.19050616,37.83238213,3323.9000
35.19053047,37.83236755,3323.9000
35.19052368,37.83235740,3323.9000
35.19050088,37.83235514,3324.3800
35.19048202,37.83236419,3323.9000
35.19048043,37.83237040,3323.9000
35.19047842,37.83237685,3323.9000
35.19047087,37.83238490,3323.9000
35.19046727,37.83238632,3323.9000
35.19046668,37.83238431,3323.9000
35.19046643,37.83238523,3325.3400
35.19046643,37.83238565,3323.9000
35.19046199,37.83238749,3324.3800
35.19046031,37.83238942,3324.3800
35.19046124,37.83239194,3324.3800
35.19047431,37.83239026,3323.9000
35.19046618,37.83238339,3323.9000
35.19046274,37.83238934,3321.9700
35.19046241,37.83238976,3325.3400
35.19046233,37.83238967,3322.4500
35.19046124,37.83239051,3326.3000
35.19045964,37.83239085,3326.3000
35.19045772,37.83239177,3324.8600
35.19046149,37.83239931,3325.3400
35.19044950,37.83239646,3323.9000
35.19045294,37.83238314,3324.3800
35.19046023,37.83238833,3324.3800
35.19045202,37.83241004,3321.4900
35.19045202,37.83241013,3323.4200
35.19045202,37.83241021,3325.3400
35.19045218,37.83241054,3323.9000
35.19045202,37.83241230,3323.9000
35.19045235,37.83241331,3323.9000
35.19045076,37.83241306,3323.9000
35.19044640,37.83241306,3323.9000
35.19044489,37.83241415,3323.9000
35.19044489,37.83241356,3323.4200
35.19044447,37.83241381,3323.4200
35.19044389,37.83241339,3323.4200
35.19044489,37.83241675,3323.4200
35.19044422,37.83241583,3323.4200
35.19040784,37.83241633,3323.4200
35.19038421,37.83242412,3322.9300
35.19038362,37.83241918,3322.9300
35.19039049,37.83242211,3322.9300
35.19038270,37.83241096,3322.9300
35.19039192,37.83242421,3322.9300
35.19043676,37.83243980,3322.9300
35.19047951,37.83240074,3322.9300
35.19047968,37.83241230,3322.9300
35.19045352,37.83244910,3322.9300
35.19047993,37.83247291,3322.9300
35.19047934,37.83247601,3322.9300
35.19045528,37.83247944,3323.4200
35.19045093,37.83247651,3323.4200
35.19044975,37.83247961,3322.9300
35.19043559,37.83247659,3322.9300
35.19044213,37.83247240,3322.9300
35.19044715,37.83247031,3322.9300
35.19042913,37.83247902,3324.3800
35.19036350,37.83252697,3324.8600
35.19035068,37.83253015,3325.8200
35.19033442,37.83252462,3325.8200
35.19030676,37.83255186,3324.8600
35.19029050,37.83255974,3327.2600
35.19026351,37.83258992,3326.7800
35.19026124,37.83259637,3327.2600
35.19025797,37.83259780,3327.2600
35.19023350,37.83262244,3327.7400
35.19024892,37.83258967,3329.1800
35.19027273,37.83259763,3329.1800
35.19030676,37.83262202,3330.1400
35.19031045,37.83261858,3330.6200
35.19031640,37.83262336,3331.1100
35.19032360,37.83262076,3332.0700
35.19034322,37.83262462,3333.0300
35.19034682,37.83263225,3333.5100
35.19034875,37.83264314,3333.9900
35.19034682,37.83265756,3334.4700
35.19034540,37.83266368,3336.3900
35.19037004,37.83268329,3337.3500
35.19034188,37.83269603,3337.3500
35.19034892,37.83272185,3338.8000
35.19035588,37.83274658,3339.2800
35.19032562,37.83276669,3340.2400
35.19029393,37.83278035,3340.2400
35.19026627,37.83277415,3341.2000
35.19026577,37.83278387,3342.1600
35.19025269,37.83280315,3342.6400
35.19025429,37.83282453,3344.0800
35.19025269,37.83283182,3344.0800
35.19025186,37.83285328,3345.0400
35.19025177,37.83287046,3346.4900
35.19025412,37.83288739,3346.9700
35.19024498,37.83288287,3346.4900
35.19024339,37.83288446,3347.4500
35.19023350,37.83291933,3348.4100
35.19021866,37.83292536,3349.3700
35.19021498,37.83295000,3349.3700
35.19017935,37.83295763,3350.8100
35.19017432,37.83296685,3352.2500
35.19018086,37.83297750,3353.7000
35.19019947,37.83299610,3354.1800
35.19020299,37.83300943,3355.6200
35.19020156,37.83301756,3355.1400
35.19020693,37.83302628,3354.6600
35.19018690,37.83301086,3355.1400
35.19017332,37.83300097,3354.6600
35.19015798,37.83298437,3354.6600
35.19015831,37.83298320,3354.6600
35.19014742,37.83297850,3354.1800
35.19015764,37.83298110,3354.6600
35.19013032,37.83296601,3354.6600
35.19011381,37.83295478,3354.1800
35.19009587,37.83294078,3354.6600
35.19009084,37.83293307,3354.6600
35.19009185,37.83293081,3354.6600
35.19009511,37.83292679,3354.6600
35.19010006,37.83292377,3355.1400
35.19009738,37.83292000,3355.1400
35.19010073,37.83291966,3355.1400
35.19010500,37.83292343,3354.6600
35.19010408,37.83292092,3356.1000
35.19010802,37.83292427,3356.1000
35.19010869,37.83292503,3355.1400
35.19010861,37.83292570,3356.1000
35.19011020,37.83293039,3356.1000
35.19011087,37.83292880,3357.0600
35.19011096,37.83292897,3352.7400
35.19011079,37.83292888,3357.0600
35.19011062,37.83292880,3355.6200
35.19011070,37.83292913,3358.5000
35.19011112,37.83292947,3352.7400
35.19011121,37.83292947,3358.0200
35.19011154,37.83293022,3356.1000
35.19010517,37.83292670,3356.1000
35.19009034,37.83292151,3355.6200
35.19010693,37.83292796,3356.1000
35.19010433,37.83292796,3356.1000
35.19010081,37.83292779,3356.5800
35.19009578,37.83292838,3356.1000
35.19009578,37.83292863,3355.1400
35.19009335,37.83293391,3356.5800
35.19009713,37.83293752,3357.0600
35.19008992,37.83294372,3357.0600
35.19008698,37.83295470,3357.0600
35.19008430,37.83296165,3357.0600
35.19008480,37.83297079,3358.0200
35.19009117,37.83298915,3359.4600
35.19008866,37.83299912,3358.5000
35.19008967,37.83300340,3359.4600
35.19008623,37.83300147,3356.1000
35.19008439,37.83300122,3359.9500
35.19008355,37.83300088,3359.4600
35.19007475,37.83300105,3359.9500
35.19006854,37.83301304,3358.9800
35.19006988,37.83301689,3360.9100
35.19008707,37.83303307,3362.3500
35.19009126,37.83303952,3363.3100
35.19008405,37.83304070,3363.3100
35.19007852,37.83304112,3364.7500
35.19008338,37.83304614,3364.7500
35.19008271,37.83304950,3365.2300
35.19008338,37.83304933,3365.2300
35.19008807,37.83304640,3365.2300
35.19009637,37.83304732,3366.6700
35.19009604,37.83304698,3366.6700
35.19009646,37.83304304,3365.7100
35.19010710,37.83304447,3365.7100
35.19010626,37.83304455,3365.7100
35.19011339,37.83304614,3365.7100
35.19009981,37.83304271,3365.7100
35.19015253,37.83306006,3365.7100
35.19014264,37.83306014,3365.7100
35.19014691,37.83306182,3365.7100
35.19013845,37.83306006,3365.7100
35.19013920,37.83305939,3365.7100
35.19013258,37.83305721,3366.1900
35.19013686,37.83305771,3366.1900
35.19014230,37.83306215,3366.1900
35.19014432,37.83306173,3366.1900
35.19014490,37.83306123,3366.1900
35.19014080,37.83306224,3366.1900
35.19014172,37.83306400,3366.6700
35.19013971,37.83306417,3366.1900
35.19014071,37.83306559,3366.6700
35.19014482,37.83306551,3367.1500
35.19015002,37.83306634,3366.6700
35.19014859,37.83306928,3366.6700
35.19014130,37.83306785,3367.1500
35.19013769,37.83306861,3367.1500
35.19013241,37.83306308,3367.1500
35.19012973,37.83306006,3367.1500
35.19012898,37.83305863,3367.1500
35.19012261,37.83305319,3367.6400
35.19012110,37.83305302,3366.1900
35.19011816,37.83304589,3366.1900
35.19011959,37.83304505,3362.8300
35.19011925,37.83304514,3358.5000
35.19011917,37.83304522,3376.7700
35.19011875,37.83304925,3366.6700
35.19012227,37.83305193,3367.6400
35.19013007,37.83305486,3369.5600
35.19012889,37.83305981,3369.0800
35.19012680,37.83306333,3368.6000
35.19013451,37.83306182,3370.0400
35.19014297,37.83306752,3371.0000
35.19015085,37.83307422,3371.9600
35.19015840,37.83307246,3371.9600
35.19016209,37.83307380,3373.4000
35.19016795,37.83307967,3373.8800
35.19017122,37.83307841,3373.8800
35.19018279,37.83308722,3375.3300
35.19019704,37.83310255,3376.7700
35.19020684,37.83311136,3378.2100
35.19021095,37.83311345,3379.1700
35.19020793,37.83311488,3379.6500
35.19021112,37.83311437,3379.1700
35.19021498,37.83312116,3383.0200
35.19021657,37.83312167,3379.6500
35.19021816,37.83312695,3380.6100
35.19022059,37.83312996,3381.5700
35.19024289,37.83314715,3383.9800
35.19024884,37.83318277,3384.9400
35.19025051,37.83318880,3384.9400
35.19024984,37.83319828,3384.9400
35.19024792,37.83321772,3385.4200
35.19024490,37.83322418,3385.4200
35.19024691,37.83324630,3386.3800
35.19023769,37.83325980,3384.9400
35.19023643,37.83327103,3385.9000
35.19024146,37.83327531,3386.8600
35.19024037,37.83328344,3385.4200
35.19022176,37.83328947,3386.3800
35.19020676,37.83329886,3386.3800
35.19019385,37.83330691,3386.8600
35.19018178,37.83330305,3386.8600
35.19018027,37.83330355,3387.3400
35.19016343,37.83330129,3387.3400
35.19015471,37.83330238,3387.8200
35.19016410,37.83330087,3386.3800
35.19016535,37.83330162,3387.8200
35.19016561,37.83330271,3387.8200
35.19016091,37.83330230,3387.8200
35.19015681,37.83330188,3387.8200
35.19015613,37.83329995,3388.3000
35.19015513,37.83329945,3388.3000
35.19015379,37.83330079,3387.8200
35.19015194,37.83330204,3387.8200
35.19015127,37.83330263,3387.8200
35.19014876,37.83330464,3388.3000
35.19013040,37.83330976,3388.7800
35.19013585,37.83331696,3388.7800
35.19015496,37.83335443,3390.7100
35.19014314,37.83337011,3391.1900
35.19014272,37.83337228,3390.7100
35.19014750,37.83339148,3393.5900
35.19013669,37.83342568,3394.5500
35.19012018,37.83343808,3394.0700
35.19011246,37.83343984,3394.5500
35.19011171,37.83344160,3394.0700
35.19011238,37.83344605,3394.5500
35.19010970,37.83345166,3394.5500
35.19012873,37.83346273,3394.5500
35.19012562,37.83346331,3394.5500
35.19011029,37.83345728,3395.0300
35.19009486,37.83345275,3395.0300
35.19009738,37.83346004,3394.5500
35.19009252,37.83345887,3395.5100
35.19008120,37.83345418,3395.0300
35.19008112,37.83345359,3395.0300
35.19009268,37.83345711,3395.5100
35.19009989,37.83346021,3395.9900
35.19008665,37.83345401,3395.5100
35.19007332,37.83344822,3395.5100
35.19006092,37.83344328,3395.9900
35.19007349,37.83344512,3395.9900
35.19008330,37.83344906,3395.9900
35.19008430,37.83345418,3395.9900
35.19008397,37.83345242,3395.9900
35.19007533,37.83344588,3395.9900
35.19007952,37.83344605,3395.9900
35.19008531,37.83344563,3396.4800
35.19008724,37.83344370,3396.4800
35.19008866,37.83344462,3395.9900
35.19008799,37.83344554,3395.9900
35.19009076,37.83344462,3395.9900
35.19008581,37.83344387,3395.9900
35.19008464,37.83344252,3395.9900
35.19007852,37.83344102,3395.9900
35.19008195,37.83344177,3396.9600
35.19007927,37.83344378,3396.4800
35.19008103,37.83343984,3395.9900
35.19007508,37.83342836,3396.4800
35.19006888,37.83342802,3395.9900
35.19007223,37.83344546,3396.4800
35.19008992,37.83346775,3395.9900
35.19010324,37.83346013,3395.9900
35.19011112,37.83347664,3396.9600
35.19012663,37.83348410,3396.4800
35.19010727,37.83346432,3396.4800
35.19010073,37.83347957,3398.4000
35.19009922,37.83348049,3395.5100
35.19010341,37.83348293,3398.8800
35.19011138,37.83348502,3396.4800
35.19013736,37.83349726,3396.4800
35.19013199,37.83349156,3396.4800
35.19013183,37.83348888,3396.4800
35.19013099,37.83348351,3395.9900
35.19012856,37.83349893,3395.9900
35.19014272,37.83350556,3396.4800
35.19011557,37.83348117,3396.4800
35.19011674,37.83348360,3396.4800
35.19011582,37.83347915,3396.4800
35.19012051,37.83347630,3396.4800
35.19011951,37.83347379,3396.4800
35.19011397,37.83347127,3396.9600
35.19012152,37.83347136,3396.4800
35.19009562,37.83346147,3396.4800
35.19009855,37.83346029,3396.4800
35.19008388,37.83345267,3396.9600
35.19007458,37.83344596,3396.9600
35.19008237,37.83345786,3396.9600
35.19007986,37.83346172,3396.4800
35.19008522,37.83347044,3396.9600
35.19007684,37.83346557,3397.9200
35.19007609,37.83346700,3397.4400
35.19007634,37.83346524,3397.9200
35.19007483,37.83346348,3397.9200
35.19007558,37.83346130,3397.9200
35.19007642,37.83346147,3397.9200
35.19007441,37.83345988,3397.9200
35.19007198,37.83345937,3397.9200
35.19006854,37.83345820,3397.9200
35.19007089,37.83345761,3398.4000
35.19007290,37.83345971,3398.4000
35.19007483,37.83345451,3398.4000
35.19007776,37.83345309,3398.4000
35.19007642,37.83344772,3398.4000
35.19007273,37.83344881,3398.4000
35.19007223,37.83344881,3398.4000
35.19007734,37.83344747,3398.4000
35.19007927,37.83344454,3398.4000
35.19007852,37.83344797,3398.4000
35.19007919,37.83345049,3398.4000
35.19007818,37.83345233,3398.4000
35.19007768,37.83345174,3398.4000
35.19007424,37.83345107,3398.8800
35.19007148,37.83344554,3398.8800
35.19007575,37.83344747,3398.8800
35.19007240,37.83344546,3398.8800
35.19007315,37.83344563,3398.8800
35.19007860,37.83344848,3398.8800
35.19008195,37.83345309,3398.8800
35.19007768,37.83345325,3398.8800
35.19007684,37.83345594,3398.8800
35.19007793,37.83346029,3398.8800
35.19008145,37.83346063,3398.8800
35.19008154,37.83346038,3399.3600
35.19007827,37.83345929,3399.3600
35.19007609,37.83345585,3399.3600
35.19008086,37.83345401,3399.3600
35.19007517,37.83345174,3399.3600
35.19007382,37.83344856,3399.3600
35.19008212,37.83345275,3399.8400
35.19008539,37.83345384,3399.3600
35.19008589,37.83345476,3399.8400
35.19008816,37.83346096,3399.8400
35.19008187,37.83346289,3399.8400
35.19008187,37.83346700,3399.8400
35.19007810,37.83346465,3399.8400
35.19007039,37.83345862,3400.3200
35.19006762,37.83345820,3400.3200
35.19006192,37.83345694,3400.3200
35.19005731,37.83345845,3400.3200
35.19005748,37.83345853,3400.3200
35.19006117,37.83345962,3400.3200
35.19006301,37.83345644,3400.8000
35.19006536,37.83345392,3401.2800
35.19006662,37.83345426,3400.3200
35.19005530,37.83345133,3400.3200
35.19005212,37.83345082,3400.8000
35.19005044,37.83345024,3400.8000
35.19004901,37.83344873,3400.8000
35.19005077,37.83344822,3400.8000
35.19005086,37.83344806,3400.8000
35.19005161,37.83344873,3400.8000
35.19005312,37.83344965,3401.2800
35.19005815,37.83345074,3401.2800
35.19005957,37.83345242,3401.2800
35.19005488,37.83345040,3401.2800
35.19005320,37.83344998,3401.2800
35.19005019,37.83345317,3401.2800
35.19004985,37.83345116,3401.2800
35.19005044,37.83344873,3401.7600
35.19004700,37.83344655,3401.7600
35.19005270,37.83344990,3401.7600
35.19005714,37.83345015,3401.7600
35.19005052,37.83344856,3401.7600
35.19005413,37.83344596,3402.2400
35.19004382,37.83344546,3402.2400
35.19004122,37.83344412,3402.2400
35.19004298,37.83344152,3402.2400
35.19003921,37.83344496,3402.2400
35.19004398,37.83344621,3402.2400
35.19004130,37.83344605,3402.2400
35.19003518,37.83344412,3402.2400
35.19003602,37.83344462,3402.2400
35.19003745,37.83344529,3402.2400
35.19003862,37.83344462,3402.2400
35.19003669,37.83344185,3402.7200
35.19003594,37.83344068,3402.7200
35.19003845,37.83343993,3402.7200
35.19003502,37.83343054,3402.7200
35.19003493,37.83343255,3402.7200
35.19003200,37.83343196,3402.7200
35.19003250,37.83342911,3402.7200
35.19089559,37.83385684,3402.7200
35.19092090,37.83388534,3402.7200
35.19095501,37.83394670,3402.7200
35.19094035,37.83391719,3402.7200
35.19091646,37.83390361,3402.7200
35.19087396,37.83385969,3402.7200
35.19083641,37.83383421,3402.2400
35.19077086,37.83380429,3402.7200
35.19071454,37.83377805,3402.2400
35.19064111,37.83373489,3402.2400
35.19053382,37.83367747,3402.2400
35.19042746,37.83360815,3402.2400
35.19034967,37.83357253,3402.2400
35.19026929,37.83354034,3402.2400
35.19022495,37.83352249,3402.2400
35.19019913,37.83351201,3401.7600
35.19018304,37.83351100,3401.7600
35.19017038,37.83350757,3401.7600
35.19016016,37.83350346,3401.2800
35.19016033,37.83349759,3401.2800
35.19015689,37.83348795,3400.8000
35.19015337,37.83348762,3401.2800
35.19015043,37.83348519,3400.8000
35.19014448,37.83347899,3400.8000
35.19013552,37.83347857,3400.3200
35.19013107,37.83347580,3400.8000
35.19012504,37.83347354,3400.3200
35.19012135,37.83347463,3400.3200
35.19010936,37.83347823,3400.3200
35.19010392,37.83347857,3400.3200
35.19009302,37.83350564,3402.7200
35.19009763,37.83350279,3403.2000
35.19010970,37.83350816,3404.6500
35.19011850,37.83351939,3405.6100
35.19011003,37.83352500,3406.0900
35.19010668,37.83353531,3406.5700
35.19011246,37.83354101,3408.0100
35.19011640,37.83354973,3408.9700
35.19010174,37.83354076,3408.0100
35.19009939,37.83354587,3408.4900
35.19010341,37.83354856,3408.0100
35.19009863,37.83354562,3408.0100
35.19009746,37.83354638,3408.4900
35.19009570,37.83354160,3408.4900
35.19009914,37.83354009,3408.4900
35.19009905,37.83354353,3408.0100
35.19009931,37.83354311,3408.4900
35.19009939,37.83354244,3408.4900
35.19009939,37.83354369,3408.4900
35.19010073,37.83354613,3408.4900
35.19010090,37.83354747,3408.4900
35.19009947,37.83354755,3408.9700
35.19009788,37.83354822,3408.4900
35.19009822,37.83354789,3408.4900
35.19010048,37.83354847,3408.4900
35.19010023,37.83354864,3408.9700
35.19009914,37.83354889,3408.9700
35.19009713,37.83354638,3408.9700
35.19009562,37.83354504,3408.9700
35.19009537,37.83354462,3409.4500
35.19009570,37.83354478,3408.9700
35.19009578,37.83354487,3408.9700
35.19009444,37.83354537,3409.4500
35.19009402,37.83354571,3409.4500
35.19009260,37.83354545,3409.4500
35.19009134,37.83354680,3409.4500
35.19009319,37.83354956,3409.4500
35.19009629,37.83355099,3409.4500
35.19009679,37.83354990,3409.4500
35.19009646,37.83354973,3409.4500
35.19009671,37.83355082,3409.4500
35.19009595,37.83355015,3409.4500
35.19009629,37.83354981,3409.4500
35.19009629,37.83354948,3409.4500
35.19009495,37.83352693,3409.4500
35.19007994,37.83353188,3409.4500
35.19007056,37.83354252,3409.4500
35.19005916,37.83353900,3409.4500
35.19005907,37.83354126,3409.4500
35.19005346,37.83354235,3409.4500
35.19005748,37.83354051,3409.4500
35.19006234,37.83354076,3409.4500
35.19006318,37.83353959,3409.4500
35.19006829,37.83353950,3410.4100
35.19007542,37.83354621,3410.4100
35.19007416,37.83354613,3409.9300
35.19007533,37.83354755,3410.4100
35.19007341,37.83354872,3409.9300
35.19007282,37.83354881,3409.4500
35.19007173,37.83354805,3409.4500
35.19007114,37.83354965,3409.9300
35.19007433,37.83354990,3409.9300
35.19007642,37.83355074,3409.9300
35.19007768,37.83355241,3409.9300
35.19007885,37.83355358,3410.4100
35.19008221,37.83355484,3410.4100
35.19008573,37.83355627,3410.4100
35.19008916,37.83355794,3410.4100
35.19009034,37.83355811,3410.4100
35.19009109,37.83355979,3411.3800
35.19009361,37.83355493,3411.3800
35.19010006,37.83355057,3411.8600
35.19009872,37.83354956,3412.8200
35.19009470,37.83354981,3411.8600
35.19009738,37.83354663,3410.8900
35.19010936,37.83354361,3409.4500
35.19010500,37.83354705,3410.4100
35.19010827,37.83354814,3410.8900
35.19010894,37.83354981,3408.0100
35.19010886,37.83354990,3412.3400
35.19010894,37.83354998,3410.4100
35.19011146,37.83355241,3408.4900
35.19011138,37.83355241,3411.3800
35.19010366,37.83355308,3410.4100
35.19009537,37.83354965,3410.4100
35.19009226,37.83354822,3410.4100
35.19009084,37.83354646,3410.8900
35.19009176,37.83354411,3410.8900
35.19009050,37.83354160,3410.8900
35.19009084,37.83354227,3410.8900
35.19009009,37.83354445,3410.4100
35.19008874,37.83354395,3410.4100
35.19008615,37.83354369,3410.4100
35.19008296,37.83354286,3410.4100
35.19008137,37.83354378,3410.8900
35.19008187,37.83354353,3410.8900
35.19007818,37.83354177,3410.8900
35.19007625,37.83354118,3410.8900
35.19007433,37.83354277,3410.8900
35.19007416,37.83354395,3410.4100
35.19007609,37.83354428,3410.4100
35.19007852,37.83354445,3410.4100
35.19007994,37.83354520,3410.4100
35.19008254,37.83354512,3410.4100
35.19008363,37.83354654,3410.4100
35.19008447,37.83354621,3410.4100
35.19008548,37.83354587,3410.4100
35.19009578,37.83355241,3408.9700
35.19010526,37.83357253,3408.0100
35.19011414,37.83360782,3406.0900
35.19014331,37.83363900,3404.6500
35.19017784,37.83368325,3401.2800
35.19018354,37.83368929,3400.8000
35.19021330,37.83370404,3399.3600
35.19022654,37.83371946,3397.9200
35.19025814,37.83374017,3395.9900
35.19028170,37.83376657,3393.5900
35.19031019,37.83378685,3391.1900
35.19032310,37.83379607,3389.2700
35.19034942,37.83381736,3388.3000
35.19036090,37.83382927,3387.3400
35.19040625,37.83386657,3384.9400
35.19042595,37.83389733,3382.5400
35.19043290,37.83390135,3381.5700
35.19041363,37.83390713,3381.5700
35.19041514,37.83391191,3380.6100
35.19042461,37.83391803,3381.0900
35.19047372,37.83396296,3377.7300
35.19050792,37.83398031,3376.2900
35.19051572,37.83400721,3375.8100
35.19052561,37.83401853,3375.3300
35.19053885,37.83402708,3372.9200
35.19053567,37.83403077,3372.4400
35.19053785,37.83405046,3371.0000
35.19053122,37.83409573,3370.0400
35.19054128,37.83410931,3370.0400
35.19055201,37.83412599,3369.0800
35.19058504,37.83414250,3367.1500
35.19059174,37.83414451,3366.6700
35.19061672,37.83416144,3365.7100
35.19064220,37.83417024,3363.7900
35.19066399,37.83418818,3362.3500
35.19068537,37.83421140,3361.8700
35.19072233,37.83423093,3359.9500
35.19074086,37.83424107,3359.9500
35.19077715,37.83426001,3358.0200
35.19083892,37.83429656,3356.5800
35.19085971,37.83431667,3354.6600
35.19092082,37.83434760,3353.2200
35.19094303,37.83437367,3352.2500
35.19097211,37.83440695,3350.3300
35.19099282,37.83443670,3349.3700
35.19102509,37.83445254,3348.8900
35.19103690,37.83446126,3348.8900
35.19106591,37.83448381,3347.4500
35.19108544,37.83450694,3345.5200
35.19109558,37.83453611,3344.0800
35.19112064,37.83456679,3343.1200
35.19113891,37.83460149,3342.1600
35.19118669,37.83464474,3340.2400
35.19119524,37.83464742,3340.2400
35.19121888,37.83467575,3337.8300
35.19122550,37.83470274,3336.8700
35.19123623,37.83473107,3336.3900
35.19123598,37.83475521,3334.4700
35.19124159,37.83476628,3333.9900
35.19124737,37.83477072,3334.9500
35.19120479,37.83479142,3334.4700
35.19119214,37.83480743,3333.9900
35.19119281,37.83480819,3333.9900
35.19119541,37.83480810,3334.4700
35.19121519,37.83482805,3333.5100
35.19121812,37.83483208,3333.0300
35.19124545,37.83486871,3331.5900
35.19128451,37.83492285,3330.1400
35.19130311,37.83493693,3329.6600
35.19131074,37.83495462,3329.1800
35.19132239,37.83498035,3328.2200
35.19137419,37.83505889,3325.8200
35.19140185,37.83511002,3324.3800
35.19142884,37.83513802,3322.9300
35.19144192,37.83515285,3322.4500
35.19153404,37.83519409,3320.0500
35.19157460,37.83521488,3319.0900
35.19166756,37.83526307,3317.1700
35.19171324,37.83530473,3315.7200
35.19174543,37.83534522,3313.8000
35.19176068,37.83535804,3313.3200
35.19182816,37.83541043,3311.4000
35.19189446,37.83544957,3310.4400
35.19190502,37.83546072,3309.4800
35.19195782,37.83553456,3308.5100
35.19201004,37.83559332,3307.0700
35.19206226,37.83563448,3306.1100
35.19212798,37.83566926,3305.1500
35.19220777,37.83570086,3304.1900
35.19221708,37.83570530,3303.7100
35.19227885,37.83573933,3303.2300
35.19230215,37.83575207,3302.7500
35.19238463,37.83576775,3301.7900
35.19245672,37.83579038,3300.8200
35.19262427,37.83582156,3299.3800
35.19274120,37.83586699,3298.4200
35.19276215,37.83587562,3297.9400
35.19284421,37.83592768,3296.5000
35.19289903,37.83596690,3295.5400
35.19304999,37.83598501,3294.0900
35.19307279,37.83599808,3293.6100
35.19308754,37.83603907,3293.6100
35.19311176,37.83613990,3292.1700
35.19312358,37.83621383,3291.2100
35.19319709,37.83626848,3290.2500
35.19326264,37.83631224,3289.7700
35.19334302,37.83634392,3288.3300
35.19336984,37.83639245,3287.3700
35.19337629,37.83639974,3287.3700
35.19347051,37.83646135,3286.4000
35.19349859,37.83651240,3285.9200
35.19349255,37.83653302,3285.4400
35.19351527,37.83655489,3284.9600
35.19358417,37.83655791,3284.4800
35.19361090,37.83656319,3284.4800
35.19364426,37.83652078,3285.4400
35.19364544,37.83652790,3286.4000
35.19363622,37.83654836,3287.3700
35.19365801,37.83657174,3288.3300
35.19368207,37.83654760,3288.8100
35.19382020,37.83658674,3288.8100
35.19389379,37.83661114,3288.3300
35.19390553,37.83664382,3288.3300
35.19385406,37.83665556,3287.8500
35.19382062,37.83669261,3287.8500
35.19382732,37.83670510,3287.8500
35.19383202,37.83670669,3287.8500
35.19383973,37.83673955,3287.8500
35.19386052,37.83673963,3288.3300
35.19381701,37.83673904,3288.3300
35.19381777,37.83671951,3287.8500
35.19383017,37.83672446,3287.3700
35.19383981,37.83672773,3287.3700
35.19383939,37.83673544,3287.3700
35.19384300,37.83673158,3287.3700
35.19384074,37.83673024,3287.8500
35.19384032,37.83673343,3287.3700
35.19385549,37.83673720,3287.3700
35.19385733,37.83674072,3287.8500
35.19383898,37.83674072,3287.8500
35.19383252,37.83673963,3287.8500
35.19383554,37.83674214,3287.3700
35.19381249,37.83674064,3287.8500
35.19383026,37.83673812,3287.8500
35.19383931,37.83673628,3287.8500
35.19383579,37.83674047,3287.8500
35.19382573,37.83674298,3287.8500
35.19382531,37.83674424,3287.8500
35.19384107,37.83674986,3287.8500
35.19383981,37.83675245,3287.8500
35.19382716,37.83674768,3287.8500
35.19383110,37.83674273,3287.8500
35.19385658,37.83674390,3287.8500
35.19387988,37.83674273,3287.8500
35.19387116,37.83675128,3287.8500
35.19385557,37.83675690,3287.8500
35.19384476,37.83675455,3287.8500
35.19384761,37.83676008,3287.8500
35.19385021,37.83676058,3287.8500
35.19385708,37.83675790,3287.3700
35.19385465,37.83674969,3287.3700
35.19382489,37.83674189,3287.3700
35.19380486,37.83675606,3287.3700
35.19380964,37.83674684,3287.3700
35.19380377,37.83674139,3287.3700
35.19379514,37.83672102,3287.8500
35.19379430,37.83671960,3287.3700
35.19380947,37.83672027,3287.3700
35.19382280,37.83671868,3287.8500
35.19380813,37.83672069,3287.8500
35.19380972,37.83671834,3287.8500
35.19381190,37.83672169,3287.3700
35.19381945,37.83671784,3287.8500
35.19381869,37.83672085,3287.8500
35.19382783,37.83671826,3287.8500
35.19381961,37.83672035,3287.8500
35.19381936,37.83671876,3287.8500
35.19382087,37.83671784,3287.8500
35.19382397,37.83672094,3287.8500
35.19383076,37.83672312,3287.8500
35.19381676,37.83672974,3288.3300
35.19381333,37.83672932,3288.3300
35.19380603,37.83671532,3288.3300
35.19379623,37.83671842,3288.3300
35.19379572,37.83671809,3287.8500
35.19380293,37.83671784,3288.3300
35.19380620,37.83671390,3288.3300
35.19379690,37.83670736,3288.3300
35.19380360,37.83670342,3288.3300
35.19378474,37.83670342,3288.3300
35.19376773,37.83670082,3288.3300
35.19376044,37.83669747,3288.8100
35.19376773,37.83671130,3288.8100
35.19376823,37.83672412,3288.8100
35.19377720,37.83672412,3288.8100
35.19377762,37.83671960,3288.8100
35.19378072,37.83672848,3288.8100
35.19377846,37.83673829,3288.8100
35.19378860,37.83674080,3288.8100
35.19380696,37.83674835,3289.2900
35.19381861,37.83675966,3289.2900
35.19381928,37.83677064,3289.2900
35.19380176,37.83675673,3289.2900
35.19378692,37.83674608,3289.2900
35.19378474,37.83673510,3289.7700
35.19377837,37.83674525,3289.2900
35.19378097,37.83674282,3289.7700
35.19377846,37.83674851,3289.2900
35.19377795,37.83674474,3289.7700
35.19377527,37.83674097,3289.7700
35.19376312,37.83672379,3289.7700
35.19377301,37.83671583,3289.7700
35.19377008,37.83672329,3289.7700
35.19376714,37.83671884,3289.7700
35.19375532,37.83670459,3289.7700
35.19375851,37.83670627,3289.7700
35.19375356,37.83669319,3289.7700
35.19375063,37.83669386,3289.7700
35.19374426,37.83668733,3289.7700
35.19374359,37.83668775,3289.7700
35.19374191,37.83668682,3289.2900
35.19373370,37.83668691,3289.2900
35.19372842,37.83668280,3289.7700
35.19372523,37.83668708,3289.2900
35.19372825,37.83668590,3289.7700
35.19372867,37.83667693,3289.7700
35.19372314,37.83666704,3289.7700
35.19373085,37.83667107,3289.7700
35.19373336,37.83666973,3289.2900
35.19373487,37.83667526,3289.7700
35.19374116,37.83666830,3289.7700
35.19375323,37.83668029,3289.7700
35.19376153,37.83668314,3289.7700
35.19376396,37.83669177,3289.2900
35.19377343,37.83669965,3289.2900
35.19377443,37.83669579,3288.8100
35.19378458,37.83669588,3289.2900
35.19379204,37.83670024,3288.8100
35.19378994,37.83670535,3289.2900
35.19378533,37.83671172,3288.8100
35.19378659,37.83671013,3289.2900
35.19378734,37.83670032,3289.2900
35.19377427,37.83670828,3289.2900
35.19376396,37.83669831,3289.2900
35.19376873,37.83669336,3288.8100
35.19376748,37.83669294,3288.8100
35.19377192,37.83668758,3288.8100
35.19377913,37.83668607,3289.2900
35.19379053,37.83668364,3289.2900
35.19378466,37.83668330,3289.2900
35.19379774,37.83667895,3289.2900
35.19378625,37.83668003,3289.2900
35.19378382,37.83668431,3289.2900
35.19378273,37.83667677,3289.2900
35.19378433,37.83667744,3288.8100
35.19378885,37.83667450,3288.8100
35.19378525,37.83667417,3289.2900
35.19378466,37.83667157,3288.8100
35.19378500,37.83667408,3288.8100
35.19379581,37.83667693,3288.8100
35.19378223,37.83667425,3288.8100
35.19377703,37.83667408,3288.8100
35.19378022,37.83667886,3288.8100
35.19378709,37.83667643,3288.8100
35.19378131,37.83667702,3288.3300
35.19379195,37.83667869,3288.3300
35.19379438,37.83667643,3288.8100
35.19379296,37.83667492,3288.3300
35.19379799,37.83667492,3288.3300
35.19379262,37.83667459,3288.3300
35.19378852,37.83667526,3288.3300
35.19378106,37.83667643,3287.8500
35.19378030,37.83667501,3287.8500
35.19377075,37.83667199,3287.8500
35.19377712,37.83667006,3287.8500
35.19377569,37.83666193,3287.8500
35.19378986,37.83665908,3287.8500
35.19378541,37.83665807,3287.3700
35.19378491,37.83665413,3287.3700
35.19377720,37.83664584,3287.3700
35.19378307,37.83665715,3287.3700
35.19378307,37.83665631,3287.3700
35.19376077,37.83665011,3287.3700
35.19377402,37.83665338,3287.3700
35.19378910,37.83667115,3286.8900
35.19379095,37.83666788,3287.3700
35.19378676,37.83666654,3286.8900
35.19378399,37.83666143,3286.8900
35.19377972,37.83666377,3286.8900
35.19378575,37.83666411,3286.8900
35.19378634,37.83666277,3286.8900
35.19378885,37.83666662,3286.8900
35.19378349,37.83666461,3286.8900
35.19377276,37.83666570,3286.8900
35.19378022,37.83666763,3286.8900
35.19378541,37.83667056,3286.8900
35.19378776,37.83667165,3286.8900
35.19377636,37.83666973,3286.8900
35.19378894,37.83667224,3286.4000
35.19378164,37.83667718,3286.4000
35.19377351,37.83667769,3286.8900
35.19376991,37.83667358,3286.8900
35.19377779,37.83667618,3286.8900
35.19378550,37.83667542,3286.4000
35.19379271,37.83667542,3286.4000
35.19380025,37.83667501,3286.4000
35.19380042,37.83667090,3286.4000
35.19379782,37.83667065,3286.4000
35.19378433,37.83667149,3286.8900
35.19378139,37.83667299,3286.4000
35.19379120,37.83667031,3285.9200
35.19379413,37.83666947,3285.9200
35.19379145,37.83667216,3285.9200
35.19378382,37.83667333,3285.4400
35.19378231,37.83667182,3285.4400
35.19378625,37.83667115,3284.9600
35.19378734,37.83667140,3285.4400
35.19377494,37.83666771,3285.4400
35.19378055,37.83666629,3285.4400
35.19377804,37.83666813,3284.9600
35.19377779,37.83666595,3285.4400
35.19378374,37.83665187,3285.4400
35.19377846,37.83664969,3285.4400
35.19377812,37.83664684,3285.4400
35.19378114,37.83665481,3285.4400
35.19378483,37.83664793,3285.4400
35.19378793,37.83664416,3285.4400
35.19378885,37.83664952,3284.9600
35.19379279,37.83665246,3285.4400
35.19378785,37.83665615,3284.9600
35.19378575,37.83665657,3285.4400
35.19379145,37.83665816,3284.9600
35.19379975,37.83663486,3285.4400
35.19380419,37.83662647,3285.4400
35.19379983,37.83661767,3285.4400
35.19379883,37.83664206,3285.4400
35.19379287,37.83665279,3285.4400
35.19378961,37.83665229,3285.4400
35.19379229,37.83665531,3285.9200
35.19379648,37.83664542,3285.4400
35.19379338,37.83664248,3285.4400
35.19378650,37.83664751,3285.4400
35.19378500,37.83665799,3285.4400
35.19378852,37.83666176,3285.4400
35.19378810,37.83664232,3285.9200
35.19377821,37.83664877,3285.9200
35.19378550,37.83665514,3285.9200
35.19379380,37.83666252,3285.9200
35.19379623,37.83666193,3285.9200
35.19378994,37.83666159,3285.9200
35.19379648,37.83666218,3285.9200
35.19379505,37.83666017,3285.9200
35.19379740,37.83665556,3286.4000
35.19380796,37.83666092,3285.9200
35.19380201,37.83665707,3285.9200
35.19380436,37.83664860,3286.4000
35.19380285,37.83665162,3286.4000
35.19379992,37.83664148,3286.4000
35.19380469,37.83663963,3285.9200
35.19380235,37.83664324,3285.9200
35.19381249,37.83665212,3285.9200
35.19380947,37.83665388,3285.9200
35.19381064,37.83665430,3286.4000
35.19380846,37.83666118,3285.9200
35.19379891,37.83666595,3285.9200
35.19379371,37.83666394,3285.9200
35.19380000,37.83666436,3286.4000
35.19379874,37.83666042,3286.4000
35.19380469,37.83665430,3286.4000
35.19380444,37.83665757,3286.4000
35.19380612,37.83666118,3286.4000
35.19380411,37.83666922,3286.4000
35.19380008,37.83667232,3286.4000
35.19380696,37.83667098,3286.4000
35.19381081,37.83666796,3286.4000
35.19380989,37.83666260,3286.4000
35.19380469,37.83666327,3286.4000
35.19379983,37.83665690,3286.4000
35.19378625,37.83665866,3286.4000
35.19379002,37.83665766,3286.4000
35.19380277,37.83665841,3285.9200
35.19380369,37.83666403,3286.4000
35.19380637,37.83665908,3285.9200
35.19380880,37.83665715,3285.9200
35.19381224,37.83666193,3286.4000
35.19382439,37.83666864,3285.9200
35.19380972,37.83666302,3286.4000
35.19379279,37.83665933,3286.4000
35.19379028,37.83666134,3286.4000
35.19379950,37.83666050,3285.9200
35.19379640,37.83666126,3286.4000
35.19379363,37.83666042,3286.4000
35.19378407,37.83666159,3286.4000
35.19379036,37.83666377,3285.9200
35.19378835,37.83666268,3286.4000
35.19379028,37.83666218,3286.4000
35.19377334,37.83666025,3285.9200
35.19377661,37.83665782,3285.9200
35.19377016,37.83665766,3285.9200
35.19377016,37.83666294,3285.9200
35.19377066,37.83666344,3285.4400
35.19376907,37.83667199,3285.4400
35.19378181,37.83666595,3285.4400
35.19378080,37.83666512,3285.4400
35.19378391,37.83666620,3284.9600
35.19379958,37.83666579,3284.9600
35.19379053,37.83666377,3284.9600
35.19377837,37.83666009,3284.9600
35.19377661,37.83666327,3284.9600
35.19379044,37.83666151,3284.9600
35.19380805,37.83666444,3284.9600
35.19380134,37.83666872,3284.9600
35.19379866,37.83667266,3284.9600
35.19381190,37.83667014,3284.9600
35.19381224,37.83667199,3284.9600
35.19381023,37.83666964,3284.9600
35.19380981,37.83667014,3284.9600
35.19380670,37.83667308,3284.9600
35.19381282,37.83666746,3284.9600
35.19381416,37.83666486,3284.9600
35.19380972,37.83666453,3284.9600
35.19381375,37.83665422,3285.4400
35.19381626,37.83665305,3284.9600
35.19380997,37.83665942,3284.9600
35.19380067,37.83666838,3284.9600
35.19379841,37.83667266,3284.9600
35.19380017,37.83666755,3284.9600
35.19379832,37.83667484,3284.9600
35.19379950,37.83669169,3284.9600
35.19381031,37.83669294,3285.4400
35.19381199,37.83669345,3285.4400
35.19381006,37.83669454,3284.9600
35.19380101,37.83669001,3284.9600
35.19380444,37.83668666,3285.4400
35.19380402,37.83667408,3285.4400
35.19380503,37.83667325,3285.4400
35.19380142,37.83666218,3285.4400
35.19379757,37.83666587,3284.9600
35.19380570,37.83666428,3285.4400
35.19380494,37.83666000,3285.4400
35.19380612,37.83666654,3285.4400
35.19379790,37.83667065,3284.9600
35.19379556,37.83666302,3284.9600
35.19380075,37.83666017,3284.9600
35.19379992,37.83666126,3285.4400
35.19380402,37.83666763,3285.4400
35.19380603,37.83666042,3285.9200
35.19380712,37.83666436,3285.9200
35.19381249,37.83667006,3285.9200
35.19380838,37.83667190,3285.9200
35.19380830,37.83667710,3285.9200
35.19381023,37.83667568,3285.9200
35.19381475,37.83666822,3285.9200
35.19381282,37.83666855,3285.9200
35.19381903,37.83666528,3285.9200
35.19381919,37.83665908,3285.9200
35.19382037,37.83666159,3285.4400
35.19382691,37.83665849,3285.9200
35.19382808,37.83665305,3285.9200
35.19383378,37.83664098,3285.9200
35.19383143,37.83664139,3286.4000
35.19382439,37.83664257,3286.4000
35.19382095,37.83663989,3286.4000
35.19381643,37.83664550,3286.8900
35.19379463,37.83664257,3286.4000
35.19379329,37.83664491,3286.8900
35.19379874,37.83663871,3286.8900
35.19379640,37.83663670,3286.8900
35.19380209,37.83663544,3286.8900
35.19381106,37.83662673,3287.3700
35.19381542,37.83662882,3287.3700
35.19381525,37.83662891,3287.3700
35.19381668,37.83662798,3287.8500
35.19381349,37.83663427,3287.8500
35.19381928,37.83663150,3287.8500
35.19383529,37.83662798,3287.8500
35.19382816,37.83663301,3287.8500
35.19382967,37.83663251,3287.8500
35.19383126,37.83663217,3287.8500
35.19382481,37.83664072,3287.8500
35.19384032,37.83664064,3287.8500
35.19384694,37.83663779,3287.8500
35.19384157,37.83664760,3288.3300
35.19383839,37.83666227,3288.8100
35.19384208,37.83666134,3288.3300
35.19383336,37.83666277,3288.3300
35.19383034,37.83666260,3288.3300
35.19383747,37.83665891,3288.8100
35.19382992,37.83665481,3288.8100
35.19382582,37.83665070,3288.8100
35.19381643,37.83665497,3288.8100
35.19381785,37.83665866,3288.8100
35.19380805,37.83665891,3288.8100
35.19380830,37.83665833,3289.2900
35.19380863,37.83666076,3289.2900
35.19380017,37.83665891,3289.2900
35.19380017,37.83665816,3289.2900
35.19380578,37.83665657,3289.2900
35.19380260,37.83665581,3289.2900
35.19379648,37.83665933,3289.2900
35.19379799,37.83665522,3289.7700
35.19379514,37.83665372,3289.7700
35.19379053,37.83665112,3289.7700
35.19378935,37.83664827,3289.7700
35.19378768,37.83664676,3289.7700
35.19378860,37.83664324,3289.7700
35.19379313,37.83663880,3290.2500
35.19379078,37.83664056,3290.2500
35.19379924,37.83664735,3290.7300
35.19379891,37.83664198,3290.2500
35.19380000,37.83665564,3290.2500
35.19380151,37.83665849,3290.2500
35.19382028,37.83664123,3290.2500
35.19382079,37.83664676,3290.2500
35.19381266,37.83664156,3290.2500
35.19381827,37.83663544,3290.2500
35.19381970,37.83664198,3290.2500
35.19381928,37.83663913,3290.7300
35.19381978,37.83663913,3290.7300
35.19382213,37.83664299,3290.2500
35.19383043,37.83664408,3290.7300
35.19382758,37.83665589,3290.7300
35.19381660,37.83666201,3290.7300
35.19382841,37.83665874,3290.7300
35.19382959,37.83666067,3290.7300
35.19382456,37.83665724,3290.7300
35.19382171,37.83665749,3291.2100
35.19383084,37.83664760,3290.7300
35.19383084,37.83664366,3290.7300
35.19383772,37.83664215,3291.2100
35.19383898,37.83664517,3291.2100
35.19383839,37.83664391,3291.6900
35.19383839,37.83664290,3290.7300
35.19383244,37.83664047,3291.6900
35.19382615,37.83664894,3291.2100
35.19382808,37.83665179,3291.2100
35.19383478,37.83665757,3291.2100
35.19383076,37.83666243,3291.2100
35.19382699,37.83666679,3291.2100
35.19383369,37.83666528,3291.2100
35.19383369,37.83667006,3291.2100
35.19383286,37.83666713,3291.2100
35.19383545,37.83666537,3291.2100
35.19383537,37.83666159,3291.2100
35.19383210,37.83666344,3290.7300
35.19382640,37.83666646,3291.2100
35.19381735,37.83665975,3291.2100
35.19382053,37.83666210,3291.2100
35.19382087,37.83665883,3291.2100
35.19382380,37.83666025,3291.2100
35.19382590,37.83665866,3291.2100
35.19382674,37.83666444,3290.2500
35.19382732,37.83666260,3290.7300
35.19382397,37.83665204,3290.7300
35.19381970,37.83664894,3290.7300
35.19382540,37.83665204,3290.7300
35.19382146,37.83665212,3290.7300
35.19382045,37.83664433,3290.2500
35.19381836,37.83664282,3290.7300
35.19381324,37.83664005,3290.7300
35.19382841,37.83662136,3290.7300
35.19383671,37.83660912,3290.7300
35.19383889,37.83661508,3290.7300
35.19384291,37.83661692,3290.7300
35.19384711,37.83662228,3289.7700
35.19384736,37.83662681,3289.7700
35.19384870,37.83662974,3283.5200
35.19384828,37.83663067,3295.0600
35.19384786,37.83663025,3290.2500
35.19384744,37.83663067,3290.7300
35.19384820,37.83663561,3290.2500
35.19388072,37.83664190,3289.7700
35.19392875,37.83666210,3289.2900
35.19400267,37.83669093,3288.8100
35.19404894,37.83670820,3287.8500
35.19409856,37.83673871,3286.4000
35.19412714,37.83677911,3284.4800
35.19416562,37.83685815,3281.6000
35.19418096,37.83691205,3278.7100
35.19420786,37.83697483,3274.8700
35.19423209,37.83700668,3272.9500
35.19423653,37.83707625,3270.5400
35.19425882,37.83710768,3269.1000
35.19427232,37.83712243,3269.1000
35.19428825,37.83720290,3266.7000
35.19428841,37.83721019,3266.7000
35.19433627,37.83724749,3265.7400
35.19438195,37.83725897,3264.7700
35.19443686,37.83729812,3263.8100
35.19448790,37.83732770,3262.8500
35.19452537,37.83736056,3261.8900
35.19455596,37.83737733,3260.9300
35.19463249,37.83744396,3258.5300
35.19464431,37.83745033,3258.0500
35.19470013,37.83747464,3256.6000
35.19477046,37.83750398,3254.6800
35.19482360,37.83755058,3253.2400
35.19489007,37.83760313,3250.3500
35.19491580,37.83764488,3249.3900
35.19497833,37.83769894,3246.9900
35.19504203,37.83772626,3244.5900
35.19506139,37.83774596,3243.6300
35.19509299,37.83776566,3242.1800
35.19511302,37.83778234,3241.7000
35.19517505,37.83784562,3238.8200
35.19521009,37.83788644,3237.3800
35.19521201,37.83789491,3237.3800
35.19527412,37.83795886,3234.0100
35.19528519,37.83796775,3234.0100
35.19532710,37.83799759,3231.1300
35.19533598,37.83801309,3229.2100
35.19532500,37.83801175,3228.7300
35.19532660,37.83801267,3228.2400
35.19533188,37.83802080,3227.2800
35.19538686,37.83805391,3224.8800
35.19544419,37.83808082,3222.9600
35.19547730,37.83809834,3221.5200
35.19552927,37.83814720,3219.5900
35.19556908,37.83817327,3217.1900
35.19558040,37.83819967,3214.7900
35.19561208,37.83821543,3212.8600
35.19563974,37.83824686,3210.9400
35.19568861,37.83828743,3208.5400
35.19569573,37.83829665,3208.0600
35.19573823,37.83835206,3205.6500
35.19574175,37.83836807,3204.6900
35.19575248,37.83838198,3203.7300
35.19576019,37.83840419,3202.2900
35.19577947,37.83847142,3199.8900
35.19579900,37.83852322,3197.4800
35.19583110,37.83853587,3196.5200
35.19586538,37.83857418,3194.6000
35.19586681,37.83865347,3191.2300
35.19587871,37.83870510,3189.3100
35.19588458,37.83872799,3188.3500
35.19590838,37.83875355,3187.8700
35.19594987,37.83881055,3185.9500
35.19599773,37.83885422,3184.9800
35.19600628,37.83890342,3184.0200
35.19603185,37.83896922,3183.0600
35.19609429,37.83902563,3182.5800
35.19614106,37.83910140,3182.5800
35.19619613,37.83916971,3182.5800
35.19625104,37.83926744,3182.1000
35.19626570,37.83927951,3182.1000
35.19625690,37.83931748,3182.1000
35.19625045,37.83934774,3182.1000
35.19624215,37.83937792,3182.1000
35.19621818,37.83945277,3182.1000
35.19618834,37.83951287,3182.1000
35.19618792,37.83954111,3182.1000
35.19619806,37.83956785,3182.1000
35.19619706,37.83959836,3181.6200
35.19621256,37.83962342,3181.6200
35.19619312,37.83970548,3180.6600
35.19617903,37.83979215,3180.1800
35.19616965,37.83984580,3178.7400
35.19617786,37.83991805,3176.8100
35.19614031,37.83997370,3175.8500
35.19614190,37.83998175,3175.8500
35.19611483,37.84007906,3174.4100
35.19610930,37.84010170,3173.9300
35.19613478,37.84019239,3172.4900
35.19616135,37.84026204,3172.0100
35.19619454,37.84033882,3170.5700
35.19624726,37.84042230,3169.1200
35.19630719,37.84049707,3167.6800
35.19633670,37.84057913,3166.7200
35.19633402,37.84058826,3167.2000
35.19635950,37.84063520,3167.2000
35.19641649,37.84072950,3167.2000
35.19643493,37.84079471,3167.2000
35.19644290,37.84085657,3166.7200
35.19644969,37.84089161,3166.7200
35.19647207,37.84099537,3166.2400
35.19647190,37.84107274,3165.7600
35.19647676,37.84109529,3165.7600
35.19647534,37.84112839,3165.2800
35.19647416,37.84117533,3165.2800
35.19646360,37.84120886,3164.8000
35.19646444,37.84121104,3164.8000
35.19646209,37.84119796,3164.8000
35.19646192,37.84118179,3164.8000
35.19644776,37.84121305,3164.8000
35.19645094,37.84121045,3164.3200
35.19645161,37.84120869,3164.3200
35.19645849,37.84122110,3163.8400
35.19645019,37.84123300,3163.3600
35.19647349,37.84129469,3161.9100
35.19647995,37.84137918,3159.9900
35.19647676,37.84145772,3158.0700
35.19651263,37.84150600,3156.1500
35.19651590,37.84156643,3153.7400
35.19651423,37.84162770,3151.3400
35.19651842,37.84168470,3148.9400
35.19649847,37.84170566,3147.9700
35.19642739,37.84179216,3145.5700
35.19639998,37.84192736,3144.1300
35.19638489,37.84201042,3143.6500
35.19637316,37.84204915,3143.6500
35.19633552,37.84218653,3142.6900
35.19631423,37.84229197,3142.6900
35.19630929,37.84238711,3142.2100
35.19630745,37.84249875,3141.7300
35.19630317,37.84257922,3141.2500
35.19631583,37.84264753,3140.7600
35.19633913,37.84273831,3140.2800
35.19635371,37.84281148,3139.8000
35.19640493,37.84290804,3138.8400
35.19642706,37.84294576,3138.3600
35.19643359,37.84300896,3137.4000
35.19648430,37.84307786,3135.9600
35.19652144,37.84313980,3134.0400
35.19657793,37.84320987,3132.1100
35.19661833,37.84328539,3130.6700
35.19664624,37.84336309,3129.2300
35.19666619,37.84343970,3128.7500
35.19668145,37.84349813,3128.7500
35.19667541,37.84357541,3128.2700
35.19667734,37.84363341,3127.7900
35.19668849,37.84369435,3127.3100
35.19669838,37.84375646,3127.3100
35.19670332,37.84377532,3126.8300
35.19669217,37.84385645,3126.3400
35.19669502,37.84395385,3125.8600
35.19669737,37.84403180,3125.8600
35.19670181,37.84412082,3125.8600
35.19670760,37.84418561,3125.8600
35.19671581,37.84422802,3125.8600
35.19669427,37.84429516,3126.3400
35.19669234,37.84432064,3126.3400
35.19667834,37.84438661,3126.8300
35.19667650,37.84447495,3127.3100
35.19666527,37.84454771,3127.3100
35.19664851,37.84463496,3127.3100
35.19662629,37.84470261,3127.3100
35.19659092,37.84476254,3127.3100
35.19656821,37.84484300,3126.8300
35.19656879,37.84485809,3126.8300
35.19653761,37.84493671,3125.8600
35.19650585,37.84500058,3125.3800
35.19647651,37.84505951,3124.9000
35.19643569,37.84513385,3123.9400
35.19639881,37.84518876,3122.5000
35.19637048,37.84523771,3121.0600
35.19634198,37.84528666,3120.1000
35.19631977,37.84533779,3119.1300
35.19627258,37.84541775,3117.6900
35.19624148,37.84548028,3116.7300
35.19619110,37.84558706,3115.2900
35.19613679,37.84566191,3114.3300
35.19609027,37.84574246,3113.3700
35.19607384,37.84579787,3113.3700
35.19605088,37.84585512,3112.8900
35.19603042,37.84594221,3112.4100
35.19600955,37.84598571,3111.9200
35.19599966,37.84604321,3111.9200
35.19598860,37.84606953,3111.4400
35.19599136,37.84615016,3110.9600
35.19596999,37.84623272,3110.0000
35.19595197,37.84631671,3109.5200
35.19592112,37.84638636,3109.0400
35.19591542,37.84640866,3108.5600
35.19591551,37.84642609,3108.5600
35.19590830,37.84645057,3108.5600
35.19588952,37.84650212,3108.0800
35.19586170,37.84656289,3107.6000
35.19584124,37.84663849,3106.6400
35.19582130,37.84669155,3105.6800
35.19580537,37.84672767,3105.2000
35.19580311,37.84674813,3105.2000
35.19576589,37.84681778,3103.7500
35.19573471,37.84689087,3102.7900
35.19570730,37.84694887,3101.3500
35.19568811,37.84702029,3100.3900
35.19569305,37.84706957,3099.4300
35.19566304,37.84716856,3097.5100
35.19565793,37.84722757,3096.5400
35.19562298,37.84731675,3095.1000
35.19560982,37.84737803,3094.1400
35.19557411,37.84741952,3094.1400
35.19553975,37.84747333,3093.6600
35.19547713,37.84754801,3092.7000
35.19544704,37.84756863,3092.7000
35.19538619,37.84761800,3092.2200
35.19529935,37.84765798,3090.2900
35.19520170,37.84771246,3087.8900
35.19513666,37.84777734,3085.4900
35.19510573,37.84781883,3084.0500
35.19506508,37.84789846,3082.1200
35.19507120,37.84798605,3080.2000
35.19508335,37.84802100,3079.7200
35.19510992,37.84810868,3078.2800
35.19511353,37.84811639,3077.8000
35.19512367,37.84815712,3077.3200
35.19512551,37.84818084,3076.8400
35.19510959,37.84826751,3075.8800
35.19510791,37.84834270,3074.4300
35.19510942,37.84842845,3073.4700
35.19511587,37.84848586,3072.9900
35.19513071,37.84855677,3071.5500
35.19512753,37.84857714,3071.0700
35.19511017,37.84862006,3070.1100
35.19510665,37.84862567,3070.1100
35.19508218,37.84861528,3070.5900
35.19509643,37.84858318,3069.6300
35.19508972,37.84858502,3069.6300
35.19508629,37.84862827,3068.6700
35.19508796,37.84870622,3066.7400
35.19509836,37.84878786,3065.3000
35.19509919,37.84879482,3064.8200
35.19510196,37.84882248,3063.8600
35.19510816,37.84892365,3060.9800
35.19511210,37.84895659,3060.4900
35.19512736,37.84899909,3059.0500
35.19513574,37.84910093,3056.6500
35.19515049,37.84918273,3054.2500
35.19516927,37.84926362,3052.8000
35.19520414,37.84935020,3050.8800
35.19523272,37.84944542,3048.9600
35.19525007,37.84950736,3047.5200
35.19525627,37.84957190,3045.5900
35.19527035,37.84966067,3043.1900
35.19528410,37.84972295,3041.2700
35.19529424,37.84979713,3039.3500
35.19530648,37.84986049,3037.4200
35.19530681,37.84994381,3035.9800
35.19530572,37.85001690,3034.0600
35.19531788,37.85008320,3033.1000
35.19534931,37.85015353,3032.1400
35.19537865,37.85024120,3030.6900
35.19537898,37.85024841,3030.6900
35.19540321,37.85036953,3029.2500
35.19541578,37.85045024,3028.2900
35.19543908,37.85050121,3026.8500
35.19544595,37.85057715,3025.8900
35.19547102,37.85065451,3024.9300
35.19550630,37.85070975,3023.9600
35.19550614,37.85072207,3023.9600
35.19553673,37.85080472,3022.5200
35.19557998,37.85088585,3021.5600
35.19560823,37.85095576,3020.6000
35.19564595,37.85099926,3020.1200
35.19570169,37.85104058,3019.1600
35.19574007,37.85107587,3018.6800
35.19576799,37.85111174,3017.7200
35.19578249,37.85114259,3017.2300
35.19579020,37.85116581,3016.7500
35.19589925,37.85121040,3015.7900
35.19591174,37.85121845,3015.7900
35.19596127,37.85128005,3014.3500
35.19596052,37.85131308,3013.3900
35.19600612,37.85133076,3012.9100
35.19602732,37.85134417,3012.4300
35.19603864,37.85136136,3012.4300
35.19605104,37.85140117,3011.4700
35.19609354,37.85145004,3010.9900
35.19614945,37.85151240,3010.0300
35.19615900,37.85152656,3010.0300
35.19617828,37.85157971,3009.5400
35.19624182,37.85162187,3009.0600
35.19624156,37.85163779,3009.0600
35.19621592,37.85164785,3009.0600
35.19625682,37.85168540,3008.5800
35.19626721,37.85169856,3009.0600
35.19629705,37.85171725,3008.5800
35.19631365,37.85176897,3008.1000
35.19634583,37.85177987,3008.5800
35.19635464,37.85178288,3008.1000
35.19634508,37.85178272,3008.1000
35.19634089,37.85185782,3008.1000
35.19636008,37.85186997,3008.1000
35.19635573,37.85188238,3008.1000
35.19636578,37.85189864,3007.6200
35.19636042,37.85190249,3007.6200
35.19637391,37.85190191,3007.6200
35.19637710,37.85190316,3007.6200
35.19638020,37.85190585,3007.6200
35.19638439,37.85190937,3007.1400
35.19639889,37.85188439,3007.6200
35.19644063,37.85187827,3007.6200
35.19647508,37.85188020,3008.1000
35.19650836,37.85187433,3008.1000
35.19660081,37.85186955,3009.5400
35.19662428,37.85186067,3010.5100
35.19667072,37.85184533,3011.9500
35.19671439,37.85183485,3012.9100
35.19673802,37.85183418,3013.8700
35.19678764,37.85183326,3014.8300
35.19682746,37.85183753,3015.3100
35.19688035,37.85183980,3015.7900
35.19691153,37.85184273,3016.2700
35.19689787,37.85183762,3016.7500
35.19689636,37.85182630,3017.7200
35.19692997,37.85182513,3017.7200
35.19695428,37.85182882,3017.2300
35.19699485,37.85183334,3016.7500
35.19708336,37.85184357,3016.2700
35.19710557,37.85184156,3016.2700
35.19715318,37.85183971,3016.2700
35.19722686,37.85184122,3013.3900
35.19723214,37.85184139,3015.7900
35.19725318,37.85184181,3017.7200
35.19726374,37.85184206,3016.2700
35.19710649,37.85182680,3016.2700
35.19714446,37.85187223,3016.2700
35.19712057,37.85184131,3016.7500
35.19707975,37.85183577,3016.7500
35.19702703,37.85182496,3017.2300
35.19695310,37.85181767,3017.2300
35.19695738,37.85182077,3017.2300
35.19695017,37.85182379,3017.2300
35.19699233,37.85184239,3017.2300
35.19696844,37.85192881,3017.2300
35.19696132,37.85190098,3017.2300
35.19692611,37.85186704,3017.2300
35.19692243,37.85184147,3017.2300
35.19692469,37.85184273,3017.2300
35.19692410,37.85184742,3017.2300
35.19692611,37.85183996,3016.2700
35.19713642,37.85188741,3017.2300
35.19706550,37.85202671,3016.7500
35.19691396,37.85189202,3016.2700
35.19683408,37.85186972,3015.7900
35.19670081,37.85191666,3013.3900
35.19659914,37.85196938,3010.9900
35.19659042,37.85197868,3010.9900
35.19647634,37.85202856,3007.6200
35.19645421,37.85202713,3007.6200
35.19634164,37.85197718,3006.1800
35.19639361,37.85188992,3005.7000
35.19636453,37.85189545,3005.7000
35.19631382,37.85187475,3005.7000
35.19629722,37.85186368,3005.7000
35.19630367,37.85186394,3005.2200
35.19630384,37.85185991,3005.7000
35.19632522,37.85186368,3005.2200
35.19635145,37.85186444,3005.2200
35.19635388,37.85186570,3004.2600
35.19635732,37.85187064,3004.2600
35.19636997,37.85187425,3004.7400
35.19636075,37.85186385,3004.2600
35.19637869,37.85186260,3004.2600
35.19638892,37.85187190,3004.2600
35.19639219,37.85187399,3004.2600
35.19638456,37.85187902,3004.7400
35.19637752,37.85188523,3004.2600
35.19637760,37.85188565,3003.7800
35.19637811,37.85188456,3003.7800
35.19637970,37.85188296,3003.7800
35.19637551,37.85188674,3003.7800
35.19636838,37.85191817,3003.7800
35.19636495,37.85191347,3003.7800
35.19636369,37.85191817,3003.3000
35.19635983,37.85191406,3003.3000
35.19636059,37.85191272,3003.3000
35.19635966,37.85191406,3003.3000
35.19637014,37.85191180,3003.3000
35.19637634,37.85191305,3002.8200
35.19638179,37.85191138,3002.8200
35.19639361,37.85191062,3002.8200
35.19639185,37.85190920,3002.3300
35.19638665,37.85190853,3002.8200
35.19638481,37.85190668,3002.8200
35.19638188,37.85190652,3002.8200
35.19637936,37.85190727,3002.8200
35.19637752,37.85190861,3002.8200
35.19636335,37.85191171,3002.8200
35.19637341,37.85190995,3002.8200
35.19639269,37.85190828,3002.8200
35.19637961,37.85190970,3002.8200
35.19638448,37.85191012,3003.3000
35.19639319,37.85190853,3002.3300
35.19639152,37.85190752,3002.3300
35.19638498,37.85190660,3002.3300
35.19638473,37.85190710,3002.3300
35.19638649,37.85190610,3002.3300
35.19638406,37.85190467,3002.3300
35.19638431,37.85190518,3002.3300
35.19638280,37.85190559,3002.3300
35.19635220,37.85187609,3001.8500
35.19635078,37.85189176,3002.3300
35.19635036,37.85189696,3001.8500
35.19635321,37.85189931,3001.8500
35.19636168,37.85189855,3001.8500
35.19636210,37.85189721,3001.8500
35.19636578,37.85189906,3001.8500
35.19637056,37.85190291,3001.3700
35.19637241,37.85190442,3000.8900
35.19637215,37.85190132,3001.8500
35.19636821,37.85189847,3001.3700
35.19636528,37.85189880,3001.3700
35.19636520,37.85189855,3001.3700
35.19637660,37.85192663,3001.3700
35.19637718,37.85195153,3000.8900
35.19638422,37.85198003,3000.4100
35.19641943,37.85203610,3000.8900
35.19646276,37.85208480,3000.4100
35.19648682,37.85215496,2998.9700
35.19651724,37.85221304,2998.9700
35.19653518,37.85226945,2998.4900
35.19655329,37.85230122,2997.0500
35.19658145,37.85233165,2997.5300
35.19660291,37.85234916,2997.5300
35.19663325,37.85238496,2996.0900
35.19663157,37.85239686,2996.5700
35.19663208,37.85239703,2997.0500
35.19666200,37.85242217,2996.0900
35.19672327,37.85247833,2995.6000
35.19676032,37.85252837,2995.1200
35.19681220,37.85259031,2994.6400
35.19684473,37.85266106,2994.1600
35.19687524,37.85269400,2994.1600
35.19689753,37.85273180,2993.6800
35.19694942,37.85279927,2993.6800
35.19700205,37.85286021,2993.2000
35.19705042,37.85290958,2992.7200
35.19708738,37.85297169,2992.7200
35.19711663,37.85302533,2992.2400
35.19715812,37.85310035,2991.7600
35.19719190,37.85316414,2991.7600
35.19721822,37.85320940,2991.7600
35.19727765,37.85326011,2991.7600
35.19729844,37.85328710,2991.7600
35.19736533,37.85332155,2991.7600
35.19740958,37.85335876,2991.7600
35.19744998,37.85338249,2991.7600
35.19751863,37.85340646,2991.7600
35.19756146,37.85343621,2991.2800
35.19761058,37.85347293,2991.7600
35.19763606,37.85348340,2991.7600
35.19769943,37.85352112,2991.7600
35.19772566,37.85353428,2991.7600
35.19779389,37.85355088,2992.2400
35.19785550,37.85359094,2992.7200
35.19793798,37.85362062,2992.2400
35.19795675,37.85363755,2992.2400
35.19798391,37.85365959,2991.7600
35.19801534,37.85366051,2991.7600
35.19806362,37.85369077,2991.7600
35.19810033,37.85373696,2991.7600
35.19815037,37.85378440,2989.8400
35.19816060,37.85379110,2989.3600
35.19822154,37.85383125,2988.4000
35.19824878,37.85385246,2987.4300
35.19826881,37.85387157,2986.9500
35.19831223,37.85387962,2985.5100
35.19834894,37.85393862,2984.0700
35.19835959,37.85394323,2983.5900
35.19840535,37.85398841,2983.1100
35.19846780,37.85400308,2982.6300
35.19855866,37.85401599,2982.1500
35.19860895,37.85402303,2982.1500
35.19872512,37.85404558,2981.1900
35.19877273,37.85406343,2981.1900
35.19886619,37.85409553,2980.2200
35.19894070,37.85412454,2979.7400
35.19895403,37.85413309,2979.7400
35.19902645,37.85415689,2979.2600
35.19906912,37.85417567,2978.7800
35.19913525,37.85419972,2978.3000
35.19921119,37.85426150,2977.8200
35.19922996,37.85426686,2977.8200
35.19929945,37.85430659,2977.8200
35.19939157,37.85434666,2977.3400
35.19943499,37.85438454,2976.8600
35.19951486,37.85440198,2976.8600
35.19959458,37.85443240,2976.3800
35.19961008,37.85443441,2976.3800
35.19975727,37.85444791,2976.3800
35.19983321,37.85444137,2976.3800
35.19988694,37.85442754,2976.8600
35.19995089,37.85441145,2976.3800
35.20002029,37.85439586,2976.3800
35.19999532,37.85441681,2976.8600
35.19998224,37.85443743,2975.9000
35.19998266,37.85444120,2976.8600
35.20001317,37.85446928,2976.8600
35.20003748,37.85449636,2977.8200
35.20006421,37.85453382,2978.3000
35.20009590,37.85456635,2978.7800
35.20011467,37.85460121,2979.7400
35.20014166,37.85463348,2980.2200
35.20016245,37.85467053,2980.7100
35.20018542,37.85469333,2981.6700
35.20021501,37.85472828,2981.6700
35.20024468,37.85476634,2982.1500
35.20027829,37.85479593,2982.6300
35.20030930,37.85482317,2982.6300
35.20033780,37.85484328,2983.1100
35.20038843,37.85489710,2983.1100
35.20042556,37.85496524,2983.1100
35.20047225,37.85500120,2982.6300
35.20050980,37.85505342,2982.6300
35.20055514,37.85508317,2982.6300
35.20061197,37.85512668,2982.1500
35.20066453,37.85516800,2982.1500
35.20071540,37.85520446,2981.6700
35.20076930,37.85523707,2982.1500
35.20082529,37.85527411,2982.6300
35.20085086,37.85531133,2982.6300
35.20088430,37.85535718,2983.1100
35.20090467,37.85538073,2983.5900
35.20093912,37.85539247,2984.5500
35.20098572,37.85544670,2985.0300
35.20102051,37.85549732,2985.5100
35.20103308,37.85552632,2985.9900
35.20104515,37.85553446,2986.4700
35.20103995,37.85554351,2985.5100
35.20103618,37.85554778,2985.9900
35.20105713,37.85555826,2986.4700
35.20110072,37.85558911,2986.4700
35.20113777,37.85564124,2986.9500
35.20115805,37.85568231,2987.4300
35.20118253,37.85573227,2987.9100
35.20122268,37.85577233,2988.4000
35.20123064,37.85578734,2988.8800
35.20126651,37.85583428,2989.8400
35.20129753,37.85586177,2990.3200
35.20131069,37.85587040,2990.3200
35.20134044,37.85589396,2990.3200
35.20136207,37.85594366,2991.2800
35.20137925,37.85597853,2991.7600
35.20140557,37.85601574,2992.2400
35.20143197,37.85605656,2992.7200
35.20146994,37.85609537,2993.2000
35.20148905,37.85613225,2993.6800
35.20152233,37.85617676,2994.1600
35.20155066,37.85622068,2994.6400
35.20156282,37.85626427,2994.6400
35.20156877,37.85631473,2995.1200
35.20157941,37.85637860,2995.1200
35.20158830,37.85642587,2996.0900
35.20157874,37.85648731,2996.0900
35.20156910,37.85654146,2997.0500
35.20155569,37.85660005,2997.5300
35.20154446,37.85666132,2998.4900
35.20153549,37.85668822,2998.9700
35.20153054,37.85669577,2999.4500
35.20152367,37.85669560,3000.4100
35.20153348,37.85669418,2999.4500
35.20153515,37.85669359,2999.4500
35.20153733,37.85669082,2999.4500
35.20153080,37.85670147,2999.4500
35.20149677,37.85675553,2999.9300
35.20146131,37.85680633,3000.8900
35.20142200,37.85685360,3000.8900
35.20138554,37.85692216,3000.8900
35.20136249,37.85695008,3000.8900
35.20133282,37.85700129,2999.9300
35.20127766,37.85706474,2999.4500
35.20126299,37.85715007,2997.5300
35.20125118,37.85717396,2996.5700
35.20120248,37.85723900,2995.6000
35.20119384,37.85724964,2995.6000
35.20115738,37.85729616,2995.1200
35.20111514,37.85734310,2995.1200
35.20104205,37.85739532,2995.1200
35.20097508,37.85744645,2995.1200
35.20091037,37.85749406,2995.6000
35.20083074,37.85754745,2996.0900
35.20077081,37.85759498,2996.5700
35.20070359,37.85765273,2996.5700
35.20061851,37.85771316,2996.5700
35.20053997,37.85776119,2996.5700
35.20048297,37.85779472,2996.5700
35.20038893,37.85784442,2996.5700
35.20029975,37.85789907,2996.5700
35.20021626,37.85794325,2997.0500
35.20015994,37.85798667,2997.5300
35.20010797,37.85801223,2998.4900
35.20006153,37.85803654,2998.9700
35.20006597,37.85804023,2998.9700
35.20000018,37.85808029,2999.9300
35.19994846,37.85813217,3001.3700
35.19993170,37.85817375,3002.3300
35.19989599,37.85820946,3003.7800
35.19986204,37.85824382,3004.7400
35.19984603,37.85826193,3005.2200
35.19979289,37.85827660,3006.1800
35.19976548,37.85830811,3007.1400
35.19974579,37.85832806,3007.6200
35.19970254,37.85836620,3009.0600
35.19965451,37.85841666,3010.0300
35.19961142,37.85843325,3010.9900
35.19957228,37.85847709,3011.4700
35.19952869,37.85850919,3011.9500
35.19949349,37.85852696,3012.4300
35.19944320,37.85855286,3013.3900
35.19939609,37.85857818,3014.3500
35.19934421,37.85860215,3014.8300
35.19929308,37.85864280,3015.7900
35.19926073,37.85867281,3016.2700
35.19925771,37.85866912,3016.2700
35.19920490,37.85871019,3017.2300
35.19912435,37.85874355,3018.6800
35.19905922,37.85878236,3019.1600
35.19901128,37.85880331,3020.1200
35.19897792,37.85882829,3020.1200
35.19890542,37.85884422,3020.6000
35.19888513,37.85885319,3021.0800
35.19883878,37.85887230,3021.0800
35.19885286,37.85886551,3022.0400
35.19886409,37.85884958,3020.6000
35.19885655,37.85886199,3021.0800
35.19884381,37.85887246,3021.5600
35.19880869,37.85888906,3022.0400
35.19877692,37.85890080,3022.0400
35.19869059,37.85892183,3023.0000
35.19863627,37.85894002,3023.4800
35.19857743,37.85899761,3023.9600
35.19851407,37.85903147,3024.4400
35.19846084,37.85905117,3024.9300
35.19839479,37.85905703,3024.9300
35.19832757,37.85906315,3025.8900
35.19827988,37.85907749,3026.8500
35.19823092,37.85908805,3027.3300
35.19816194,37.85909961,3028.2900
35.19815867,37.85908696,3028.7700
35.19815792,37.85909836,3029.2500
35.19813797,37.85910448,3029.2500
35.19813990,37.85909802,3025.8900
35.19814141,37.85909735,3029.2500
35.19814887,37.85909777,3029.2500
35.19815197,37.85909777,3028.7700
35.19815281,37.85910221,3028.7700
35.19815582,37.85910188,3029.2500
35.19813059,37.85909517,3029.2500
35.19805382,37.85912660,3030.6900
35.19797930,37.85916441,3031.6600
35.19791887,37.85917874,3032.1400
35.19783865,37.85919265,3033.1000
35.19777243,37.85920715,3033.5800
35.19769901,37.85924445,3034.0600
35.19763170,37.85923859,3034.5400
35.19761192,37.85921989,3035.0200
35.19761569,37.85922174,3035.0200
35.19757756,37.85924194,3035.5000
35.19751000,37.85925745,3036.4600
35.19745635,37.85926926,3037.4200
35.19740581,37.85927907,3038.3800
35.19734194,37.85927698,3039.3500
35.19728788,37.85928167,3039.8300
35.19723314,37.85928376,3040.7900
35.19720674,37.85928318,3041.2700
35.19719341,37.85928284,3041.2700
35.19715033,37.85929433,3042.2300
35.19709568,37.85931930,3043.1900
35.19703198,37.85933665,3044.6300
35.19697163,37.85935132,3046.0700
35.19693056,37.85936214,3047.0400
35.19687406,37.85939030,3048.0000
35.19682536,37.85940212,3049.4400
35.19677381,37.85942265,3049.9200
35.19677264,37.85942274,3049.9200
35.19677147,37.85942106,3049.9200
35.19675605,37.85941846,3050.8800
35.19675764,37.85941335,3049.9200
35.19676141,37.85941100,3050.4000
35.19675948,37.85940522,3050.4000
35.19671749,37.85942056,3051.3600
35.19670751,37.85942156,3051.3600
35.19664783,37.85942081,3051.8400
35.19656494,37.85944101,3052.8000
35.19651280,37.85945199,3053.7700
35.19644742,37.85945970,3054.2500
35.19638716,37.85947915,3055.2100
35.19632698,37.85947940,3054.7300
35.19627744,37.85951066,3055.2100
35.19622907,37.85952290,3055.2100
35.19613763,37.85955349,3055.6900
35.19607292,37.85957713,3055.2100
35.19606236,37.85957797,3055.2100
35.19596513,37.85960580,3055.2100
35.19590134,37.85961644,3055.6900
35.19586505,37.85962508,3052.8000
35.19585809,37.85962759,3057.1300
35.19585583,37.85962793,3056.1700
35.19583303,37.85962818,3054.7300
35.19577637,37.85964075,3055.2100
35.19567880,37.85964905,3054.7300
35.19557487,37.85965751,3054.2500
35.19548325,37.85967495,3054.2500
35.19549122,37.85967738,3054.7300
35.19547521,37.85967453,3054.2500
35.19546817,37.85967587,3054.2500
35.19540530,37.85966665,3053.7700
35.19531838,37.85966363,3054.2500
35.19524127,37.85967319,3054.2500
35.19517354,37.85968584,3054.7300
35.19508838,37.85969632,3055.2100
35.19500683,37.85969892,3055.2100
35.19494304,37.85971409,3055.2100
35.19492577,37.85971694,3055.2100
35.19484505,37.85971954,3055.6900
35.19477641,37.85972038,3055.6900
35.19470357,37.85973018,3056.1700
35.19469561,37.85972733,3056.1700
35.19464557,37.85973639,3056.1700
35.19459133,37.85973479,3056.1700
35.19452847,37.85973228,3056.1700
35.19447776,37.85972205,3056.6500
35.19442361,37.85971887,3057.1300
35.19437139,37.85970395,3057.6100
35.19431272,37.85968794,3058.0900
35.19424038,37.85966489,3058.5700
35.19417744,37.85963857,3059.0500
35.19414852,37.85962390,3060.0100
35.19409035,37.85960337,3060.4900
35.19406721,37.85959155,3060.4900
35.19404559,37.85957185,3060.9800
35.19398432,37.85954260,3061.4600
35.19393310,37.85951645,3062.4200
35.19387762,37.85947680,3062.9000
35.19383906,37.85946381,3063.3800
35.19378810,37.85942525,3063.8600
35.19374476,37.85939541,3064.8200
35.19370118,37.85936381,3065.3000
35.19367251,37.85935199,3065.7800
35.19363999,37.85935317,3066.7400
35.19357729,37.85935493,3067.2200
35.19352247,37.85935174,3068.1900
35.19344268,37.85935660,3069.1500
35.19341762,37.85937144,3069.6300
35.19333170,37.85935116,3070.1100
35.19330807,37.85935216,3070.1100
35.19328007,37.85935635,3070.1100
35.19324579,37.85937211,3070.1100
35.19319198,37.85937479,3070.5900
35.19316934,37.85937437,3070.5900
35.19308687,37.85938225,3070.5900
35.19302518,37.85939340,3070.5900
35.19296960,37.85941008,3071.0700
35.19292895,37.85942969,3072.0300
35.19291596,37.85943095,3072.0300
35.19288428,37.85943883,3072.5100
35.19283541,37.85945283,3072.9900
35.19278218,37.85947395,3073.4700
35.19273282,37.85950513,3073.9500
35.19265822,37.85954126,3073.9500
35.19259728,37.85957512,3073.9500
35.19252670,37.85959968,3073.9500
35.19248194,37.85961200,3073.9500
35.19241045,37.85963941,3073.9500
35.19235664,37.85967553,3072.9900
35.19230131,37.85969758,3072.5100
35.19227692,37.85970680,3072.5100
35.19225077,37.85971476,3072.5100
35.19223091,37.85973287,3072.5100
35.19220283,37.85975399,3072.5100
35.19215187,37.85976941,3072.0300
35.19208640,37.85980001,3071.5500
35.19200552,37.85984099,3071.0700
35.19194617,37.85986656,3069.6300
35.19190309,37.85989221,3069.6300
35.19185942,37.85991895,3069.6300
35.19179346,37.85996261,3069.1500
35.19179119,37.85996002,3069.6300
35.19178826,37.85995876,3069.6300
35.19179077,37.85996622,3069.1500
35.19178809,37.85996496,3069.1500
35.19178407,37.85996370,3070.1100
35.19178507,37.85996194,3069.1500
35.19178658,37.85996077,3069.6300
35.19178449,37.85996027,3069.1500
35.19178180,37.85996203,3069.1500
35.19177946,37.85996303,3069.1500
35.19177049,37.85995608,3068.6700
35.19177577,37.85996706,3067.2200</coordinates>
        </LineString>
        <LineString>
          <extrude>true</extrude>
          <tessellate>true</tessellate>
          <coordinates>35.19183570,37.85989598,3073.9500
35.19181843,37.85990595,3071.0700
35.19181776,37.85996815,3070.5900
35.19183394,37.85999136,3070.5900
35.19180058,37.85997209,3070.1100
35.19179253,37.85997301,3070.5900
35.19181198,37.85995876,3070.1100
35.19181240,37.85996672,3068.6700</coordinates>
        </LineString>
      </MultiGeometry>
    </Placemark>
  </Document>
</kml>

